RISC_V.vcd
$date
	Sun Aug 24 11:38:46 2025
$end
$version
	Icarus Verilog
$end
$timescale
	1s
$end
$scope module Testbench $end
$var reg 1 ! clk $end
$var reg 1 " rst $end
$scope module uut $end
$var wire 1 ! clk $end
$var wire 1 " rst $end
$var wire 1 # x $end
$var wire 32 $ rdB [31:0] $end
$var wire 32 % instruction [31:0] $end
$var wire 32 & data2 [31:0] $end
$var wire 32 ' data1 [31:0] $end
$var wire 1 ( Zero_branch $end
$var wire 1 ) Zero $end
$var wire 2 * ResultSrc [1:0] $end
$var wire 32 + Result [31:0] $end
$var wire 1 , RegWrite $end
$var wire 32 - PC_next [31:0] $end
$var wire 32 . PC_ALU_Sum [31:0] $end
$var wire 1 / PCSrc $end
$var wire 32 0 PCPlus4 [31:0] $end
$var wire 32 1 PC [31:0] $end
$var wire 1 2 MemWrite $end
$var wire 32 3 MemReadData [31:0] $end
$var wire 1 4 MemRead $end
$var wire 104 5 MEM_WB [103:0] $end
$var wire 1 6 JumpReg $end
$var wire 1 7 Jump $end
$var wire 2 8 ImmType [1:0] $end
$var wire 32 9 ImmExt [31:0] $end
$var wire 64 : IF_ID [63:0] $end
$var wire 176 ; ID_EX [175:0] $end
$var wire 141 < EX_MEM [140:0] $end
$var wire 1 = Carry $end
$var wire 1 > Branch $end
$var wire 32 ? ALUresult [31:0] $end
$var wire 1 @ ALUSrc $end
$var wire 4 A ALUControl [3:0] $end
$scope module ALU $end
$var wire 4 B ALUControl [3:0] $end
$var wire 1 = Carry $end
$var wire 32 C rdA [31:0] $end
$var wire 5 D shamt [4:0] $end
$var wire 32 E rdB [31:0] $end
$var wire 1 ) Zero $end
$var reg 32 F ALUresult [31:0] $end
$var reg 1 G Cout $end
$upscope $end
$scope module ALU_branch $end
$var wire 1 H Carry $end
$var wire 5 I shamt [4:0] $end
$var wire 32 J rdB [31:0] $end
$var wire 32 K rdA [31:0] $end
$var wire 1 ( Zero $end
$var wire 4 L ALUControl [3:0] $end
$var reg 32 M ALUresult [31:0] $end
$var reg 1 N Cout $end
$upscope $end
$scope module Control_Unit $end
$var wire 1 ( Zero $end
$var wire 3 O funct3 [2:0] $end
$var wire 7 P funct7 [6:0] $end
$var wire 7 Q opcode [6:0] $end
$var wire 1 " rst $end
$var wire 4 R r_type_ALUControl [3:0] $end
$var wire 1 / PCSrc $end
$var reg 4 S ALUControl [3:0] $end
$var reg 1 @ ALUSrc $end
$var reg 1 > Branch $end
$var reg 2 T ImmType [1:0] $end
$var reg 1 7 Jump $end
$var reg 1 6 JumpReg $end
$var reg 1 4 MemRead $end
$var reg 1 2 MemWrite $end
$var reg 1 , RegWrite $end
$var reg 2 U ResultSrc [1:0] $end
$scope module r_type_alu_ctrl_inst $end
$var wire 3 V funct3 [2:0] $end
$var wire 7 W funct7 [6:0] $end
$var reg 4 X ALUControl [3:0] $end
$upscope $end
$upscope $end
$scope module Data_Memory $end
$var wire 32 Y ALUresult [31:0] $end
$var wire 1 Z MemRead $end
$var wire 1 [ MemWrite $end
$var wire 32 \ MemWriteData [31:0] $end
$var wire 1 ! clk $end
$var wire 32 ] MemReadData [31:0] $end
$upscope $end
$scope module EXMEM $end
$var wire 32 ^ ALUresult [31:0] $end
$var wire 1 _ Branch $end
$var wire 2 ` Mem_Con [1:0] $end
$var wire 32 a PC [31:0] $end
$var wire 1 b PCSrc $end
$var wire 1 c Reg_Con $end
$var wire 2 d ResultSrc [1:0] $end
$var wire 1 ) Zero $end
$var wire 1 ! clk $end
$var wire 32 e data2 [31:0] $end
$var wire 5 f rd_ID_EX [4:0] $end
$var wire 1 " rst $end
$var wire 32 g PC_ALU_Sum [31:0] $end
$var reg 141 h EX_MEM [140:0] $end
$upscope $end
$scope module IDEX $end
$var wire 13 i Ex_Con [12:0] $end
$var wire 2 j Mem_Con [1:0] $end
$var wire 32 k PC [31:0] $end
$var wire 1 , Reg_Con $end
$var wire 1 ! clk $end
$var wire 32 l instruction [31:0] $end
$var wire 1 " rst $end
$var wire 32 m data2 [31:0] $end
$var wire 32 n data1 [31:0] $end
$var wire 32 o ImmExt [31:0] $end
$var reg 176 p ID_EX [175:0] $end
$upscope $end
$scope module IFID $end
$var wire 1 ! clk $end
$var wire 1 " rst $end
$var wire 32 q instruction [31:0] $end
$var wire 32 r PC [31:0] $end
$var reg 64 s IF_ID [63:0] $end
$var reg 64 t IF_ID_nxt [63:0] $end
$upscope $end
$scope module Imm0 $end
$var wire 2 u ImmType [1:0] $end
$var wire 32 v instruction [31:0] $end
$var wire 20 w u_imm [19:0] $end
$var wire 12 x s_imm [11:0] $end
$var wire 12 y i_imm [11:0] $end
$var wire 12 z b_imm [11:0] $end
$var reg 32 { ImmExt [31:0] $end
$upscope $end
$scope module Inst_Mem $end
$var wire 1 " rst $end
$var wire 32 | instruction [31:0] $end
$var wire 32 } PC [31:0] $end
$upscope $end
$scope module MEMWB $end
$var wire 32 ~ ALUresult [31:0] $end
$var wire 32 !" MemReadData [31:0] $end
$var wire 32 "" PC [31:0] $end
$var wire 1 #" Reg_Con $end
$var wire 2 $" ResultSrc [1:0] $end
$var wire 1 ! clk $end
$var wire 5 %" rd_EXMEM [4:0] $end
$var wire 1 " rst $end
$var reg 104 &" MEM_WB [103:0] $end
$upscope $end
$scope module MultiPC $end
$var wire 32 '" B [31:0] $end
$var wire 1 # sel $end
$var wire 32 (" Out [31:0] $end
$var wire 32 )" A [31:0] $end
$upscope $end
$scope module Multiplex_ALU $end
$var wire 32 *" A [31:0] $end
$var wire 32 +" B [31:0] $end
$var wire 1 ," sel $end
$var wire 32 -" Out [31:0] $end
$upscope $end
$scope module PC0 $end
$var wire 32 ." PC_next [31:0] $end
$var wire 1 ! clk $end
$var wire 1 " rst $end
$var reg 32 /" PC [31:0] $end
$upscope $end
$scope module PC_ALU_Adder0 $end
$var wire 32 0" A [31:0] $end
$var wire 32 1" B [31:0] $end
$var wire 32 2" Sum [31:0] $end
$upscope $end
$scope module PCplus4 $end
$var wire 32 3" PC [31:0] $end
$var wire 1 " rst $end
$var wire 32 4" PCPlus4 [31:0] $end
$upscope $end
$scope module Register $end
$var wire 1 5" RegWrite $end
$var wire 1 ! clk $end
$var wire 5 6" rs1 [4:0] $end
$var wire 5 7" rs2 [4:0] $end
$var wire 1 " rst $end
$var wire 5 8" w_add [4:0] $end
$var wire 32 9" data2 [31:0] $end
$var wire 32 :" data1 [31:0] $end
$var wire 32 ;" RegWriteData [31:0] $end
$upscope $end
$scope module multipplex_result0 $end
$var wire 32 <" A [31:0] $end
$var wire 32 =" B [31:0] $end
$var wire 32 >" C [31:0] $end
$var wire 32 ?" D [31:0] $end
$var wire 2 @" sel [1:0] $end
$var wire 32 A" Result [31:0] $end
$upscope $end
$upscope $end
$upscope $end
$enddefinitions $end
$comment Show the parameter values. $end
$dumpall
$end
#0
$dumpvars
b0 A"
b0 @"
b0 ?"
b0 >"
b0 ="
b0 <"
b0 ;"
b0 :"
b0 9"
b0 8"
b0 7"
b0 6"
05"
b0 4"
b0 3"
b0 2"
b0 1"
b0 0"
b0 /"
b0 ."
b0 -"
0,"
b0 +"
b0 *"
b0 )"
b0 ("
b0 '"
b0 &"
b0 %"
b0 $"
0#"
b0 ""
b0 !"
b0 ~
b0 }
b0 |
b0 {
b0 z
b0 y
b0 x
b0 w
b0 v
b0 u
b0 t
b0 s
b0 r
b0 q
b0 p
b0 o
b0 n
b0 m
b0 l
b0 k
b0 j
b0 i
b0 h
b0 g
b0 f
b0 e
b0 d
0c
0b
b0 a
b0 `
0_
b0 ^
b0 ]
b0 \
0[
0Z
b0 Y
b0 X
b0 W
b0 V
b0 U
b0 T
b0 S
b0 R
b0 Q
b0 P
b0 O
0N
b0 M
b0 L
b0 K
b0 J
b0 I
0H
0G
b0 F
b0 E
b0 D
b0 C
b0 B
b0 A
0@
b0 ?
0>
0=
b0 <
b0 ;
b0 :
b0 9
b0 8
07
06
b0 5
04
b0 3
02
b0 1
b0 0
0/
b0 .
b0 -
0,
b0 +
b0 *
1)
1(
b0 '
b0 &
b0 %
b0 $
0#
0"
1!
$end
#2
b100 -
b100 ("
b100 ."
b100010110000110110011 %
b100010110000110110011 q
b100010110000110110011 |
b100 0
b100 )"
b100 4"
1"
#5
0!
#10
b100000000010 z
b1 9
b1 o
b1 {
b1000 I
0(
b1001 M
b11 i
b11 A
b11 L
b11 S
b1 y
b11 x
b100010110 w
b1000 &
b1000 J
b1000 m
b1000 9"
b1001 '
b1001 K
b1001 n
b1001 :"
b11 R
b11 X
1,
b1000 -
b1000 ("
b1000 ."
b11111110001000001001111011100011 %
b11111110001000001001111011100011 q
b11111110001000001001111011100011 |
b100010110000110110011 l
b100010110000110110011 v
b1 7"
b10 6"
b110 O
b110 V
b110011 Q
b1000 0
b1000 )"
b1000 4"
b1000000000000000000000000000000000000000000000000000000000000000000000 <
b1000000000000000000000000000000000000000000000000000000000000000000000 h
b100010110000110110011 :
b100010110000110110011 s
b100 1
b100 r
b100 }
b100 /"
b100 3"
1!
#15
0!
#20
1/
b111111111100 z
b1001 I
0(
b11111111111111111111111111111111 M
b11111111111111111111111111111100 9
b11111111111111111111111111111100 o
b11111111111111111111111111111100 {
b1000 D
b1100 -
b1100 ("
b1100 ."
b1000011101111 %
b1000011101111 q
b1000011101111 |
b111111100010 y
b111111111101 x
b11111110001000001001 w
b1001 &
b1001 J
b1001 m
b1001 9"
b1000 '
b1000 K
b1000 n
b1000 :"
b0 R
b0 X
b1 A
b1 L
b1 S
0,
b10 8
b10 T
b10 u
b100100100001 i
1>
b1000 $
b1000 E
b1000 -"
0)
b1001 ?
b1001 F
b1001 ^
b1100 0
b1100 )"
b1100 4"
b11111110001000001001111011100011 l
b100 k
b11111110001000001001111011100011 v
b10 7"
b1 6"
b1111111 P
b1111111 W
b1 O
b1 V
b1100011 Q
1c
b11 f
b1000 e
b1 .
b1 g
b1 2"
b1 1"
b1 +"
b1000 *"
b11 B
b1001 C
b1000 1
b1000 r
b1000 }
b1000 /"
b1000 3"
b10011111110001000001001111011100011 :
b10011111110001000001001111011100011 s
b10000000000000110000000000000000000000000000000000000000000000000000000000001001000000000000000000000000000010000000000000000000000000000000000100000000000100010110000110110011 ;
b10000000000000110000000000000000000000000000000000000000000000000000000000001001000000000000000000000000000010000000000000000000000000000000000100000000000100010110000110110011 p
1!
#25
0!
#30
b1001 D
b100000000000 z
b0 I
1(
b0 M
b1000000000000 9
b1000000000000 o
b1000000000000 {
b1001 $
b1001 E
b1001 -"
0)
b11111111111111111111111111111111 ?
b11111111111111111111111111111111 F
b11111111111111111111111111111111 ^
b0 y
b1 x
b1 w
b0 &
b0 J
b0 m
b0 9"
b0 '
b0 K
b0 n
b0 :"
b111 R
b111 X
b0 A
b0 L
b0 S
b11 8
b11 T
b11 u
b10 *
b10 U
b110110110000 i
17
1,
b10000 -
b10000 ("
b10000 ."
b11100001010001000100011 %
b11100001010001000100011 q
b11100001010001000100011 |
b11 %"
b1001 ~
1#"
b1001 Y
b1000 \
b1 '"
b100 a
1b
1_
0c
b11101 f
b1001 e
b11111111111111111111111111111100 1"
b0 .
b0 g
b0 2"
b100 0"
b11111111111111111111111111111100 +"
b1001 *"
b1 B
b1000 C
b1000011101111 l
b1000 k
b1000011101111 v
b0 7"
b0 6"
b0 P
b0 W
b1101111 Q
b10000 0
b10000 )"
b10000 4"
b1000000000000000000000000000000000010000000000000000000000000000010010000000000000000000000000000100000011 <
b1000000000000000000000000000000000010000000000000000000000000000010010000000000000000000000000000100000011 h
b1001001000010000000000000000000000000000010000000000000000000000000000001000000000000000000000000000000010011111111111111111111111111111110011111110001000001001111011100011 ;
b1001001000010000000000000000000000000000010000000000000000000000000000001000000000000000000000000000000010011111111111111111111111111111110011111110001000001001111011100011 p
b100000000000000000000001000011101111 :
b100000000000000000000001000011101111 s
b1100 1
b1100 r
b1100 }
b1100 /"
b1100 3"
1!
#35
0!
#40
b100 z
b1101 I
0(
b10101 M
b100 9
b100 o
b100 {
b0 D
bx %
bx q
bx |
b111 y
b100 x
b11100001010 w
b1101 &
b1101 J
b1101 m
b1101 9"
b1000 '
b1000 K
b1000 n
b1000 :"
b101 R
b101 X
0,
b1 8
b1 T
b1 u
b1110110010000 i
1@
b10 j
12
b0 $
b0 E
b0 -"
1)
b0 ?
b0 F
b0 ^
b0 -
b0 ("
b0 ."
b1001 +
b1001 ;"
b1001 A"
b10100 0
b10100 )"
b10100 4"
b11100001010001000100011 l
b1100 k
b11100001010001000100011 v
b111 7"
b1 6"
b10 O
b10 V
b100011 Q
b1000 a
b10 d
1c
b1 f
b0 e
b1000000000000 1"
b1000000001000 .
b1000000001000 g
b1000000001000 2"
b1000 0"
b1000000000000 +"
b0 *"
b0 B
b0 C
b100 ""
b11101 %"
b11111111111111111111111111111111 ~
0#"
b11111111111111111111111111111111 Y
b1001 \
b0 '"
1#
b1001 <"
15"
b11 8"
b10000 1
b10000 r
b10000 }
b10000 /"
b10000 3"
b110000000000011100001010001000100011 :
b110000000000011100001010001000100011 s
b10001101101100000000000000000000000000000000100000000000000000000000000000000000000000000000000000000000000000000000000000000000000100000000000000000000000000000001000011101111 ;
b10001101101100000000000000000000000000000000100000000000000000000000000000000000000000000000000000000000000000000000000000000000000100000000000000000000000000000001000011101111 p
b1000010001000000000000000000000000000000000111111111111111111111111111111110000000000000000000000000000100111101 <
b1000010001000000000000000000000000000000000111111111111111111111111111111110000000000000000000000000000100111101 h
b1000000000000000000000000000000000000000000000000000000000000100100011 5
b1000000000000000000000000000000000000000000000000000000000000100100011 &"
1!
#45
0!
#50
0/
b100 D
bx0 z
bx 9
bx o
bx {
bx I
xH
xN
x(
bx M
b11111111111111111111111111111111 +
b11111111111111111111111111111111 ;"
b11111111111111111111111111111111 A"
b1000000001000 -
b1000000001000 ("
b1000000001000 ."
b100 $
b100 E
b100 -"
0)
b1100 ?
b1100 F
b1100 ^
bx y
bx x
bx w
bx &
bx J
bx m
bx 9"
bx '
bx K
bx n
bx :"
b0 R
b0 X
07
b1010000010000 i
0>
b100010110000110110011 %
b100010110000110110011 q
b100010110000110110011 |
b100 >"
b11111111111111111111111111111111 <"
05"
b11101 8"
b1000 ""
b10 $"
b1 %"
b0 ~
1#"
b0 Y
b0 \
b1000000001000 '"
b1100 a
b10 `
0c
b100 f
b1101 e
b100 1"
b10000 .
b10000 g
b10000 2"
b1100 0"
1,"
b100 +"
b1101 *"
b1000 C
bx l
b10000 k
bx v
bx 7"
bx 6"
bx P
bx W
bx O
bx V
bx Q
b100 0
b100 )"
b100 4"
b100000000000000000000000000000000000001111111111111111111111111111111111101 5
b100000000000000000000000000000000000001111111111111111111111111111111111101 &"
b10001011001000000000000000000010000000010001000000000000000000000000000000000000000000000000000000000000000000001 <
b10001011001000000000000000000010000000010001000000000000000000000000000000000000000000000000000000000000000000001 h
b1011101100100000000000000000000000000000000110000000000000000000000000000001000000000000000000000000000000011010000000000000000000000000000010000000000011100001010001000100011 ;
b1011101100100000000000000000000000000000000110000000000000000000000000000001000000000000000000000000000000011010000000000000000000000000000010000000000011100001010001000100011 p
b10000xxxxxxxxxxxxxxxxxxxxxxxxxxxxxxxx :
b10000xxxxxxxxxxxxxxxxxxxxxxxxxxxxxxxx s
b0 1
b0 r
b0 }
b0 /"
b0 3"
1!
#55
0!
#60
b100000000010 z
b1000 I
0(
b1001 M
b11 A
b11 L
b11 S
b1 9
b1 o
b1 {
bx D
bx %
bx q
bx |
b1 y
b11 x
b100010110 w
b1000 &
b1000 J
b1000 m
b1000 9"
b1001 '
b1001 K
b1001 n
b1001 :"
b11 R
b11 X
b0 8
b0 T
b0 u
b0 *
b0 U
b11 i
0@
1,
bx $
bx E
bx -"
x=
xG
x)
bx ?
bx F
bx ^
b10000 -
b10000 ("
b10000 ."
b1000 +
b1000 ;"
b1000 A"
b1000000001100 0
b1000000001100 )"
b1000000001100 4"
b100010110000110110011 l
b0 k
b100010110000110110011 v
b1 7"
b10 6"
b0 P
b0 W
b110 O
b110 V
b110011 Q
b10000 a
0b
0_
bx f
bx e
bx 1"
bx .
bx g
bx 2"
b10000 0"
bx +"
bx *"
bx C
b1100 ""
b100 %"
b1100 ~
0#"
b1100 Y
b1101 \
1[
b10000 '"
b10 @"
b1000 >"
b0 <"
15"
b1 8"
b1000000001000 1
b1000000001000 r
b1000000001000 }
b1000000001000 /"
b1000000001000 3"
b100010110000110110011 :
b100010110000110110011 s
b10101000001000000000000000000000000000000010000xxxxxxxxxxxxxxxxxxxxxxxxxxxxxxxxxxxxxxxxxxxxxxxxxxxxxxxxxxxxxxxxxxxxxxxxxxxxxxxxxxxxxxxxxxxxxxxxxxxxxxxxxxxxxxxxxxxxxxxxxxxxxxxx ;
b10101000001000000000000000000000000000000010000xxxxxxxxxxxxxxxxxxxxxxxxxxxxxxxxxxxxxxxxxxxxxxxxxxxxxxxxxxxxxxxxxxxxxxxxxxxxxxxxxxxxxxxxxxxxxxxxxxxxxxxxxxxxxxxxxxxxxxxxxxxxxxxx p
b11001010101000000000000000000000000000100000000000000000000000000000000011000000000000000000000000000000110100100 <
b11001010101000000000000000000000000000100000000000000000000000000000000011000000000000000000000000000000110100100 h
b1000101000000000000000000000000000000000000000000000000000000000000000000001 5
b1000101000000000000000000000000000000000000000000000000000000000000000000001 &"
1!
#65
0!
#70
b1100 +
b1100 ;"
b1100 A"
b1000 D
bx0 z
bx 9
bx o
bx {
bx I
x(
bx M
b10100 -
b10100 ("
b10100 ."
b1000 $
b1000 E
b1000 -"
0)
b1001 ?
b1001 F
b1001 ^
bx y
bx x
bx w
bx &
bx J
bx m
bx 9"
bx '
bx K
bx n
bx :"
b0 R
b0 X
0,
b1100 >"
b1100 <"
05"
b100 8"
b10000 ""
bx %"
bx ~
bx Y
bx \
bx '"
0#
b0 a
b0 d
1c
b11 f
b1000 e
b1 .
b1 g
b1 2"
b1 1"
b0 0"
0,"
b1 +"
b1000 *"
b11 B
b1001 C
bx l
b1000000001000 k
bx v
bx 7"
bx 6"
bx P
bx W
bx O
bx V
bx Q
b10100 0
b10100 )"
b10100 4"
b1100100000000000000000000000000000000000000000000000000000000000000110000100 5
b1100100000000000000000000000000000000000000000000000000000000000000110000100 &"
b100001000100xxxxxxxxxxxxxxxxxxxxxxxxxxxxxxxxxxxxxxxxxxxxxxxxxxxxxxxxxxxxxxxxxxxxxxxxxxxxxxxxxxxxxxxxxxxxxxxxxxxxxx <
b100001000100xxxxxxxxxxxxxxxxxxxxxxxxxxxxxxxxxxxxxxxxxxxxxxxxxxxxxxxxxxxxxxxxxxxxxxxxxxxxxxxxxxxxxxxxxxxxxxxxxxxxxx h
b11000000000000110000000000000000000000000000000000000000000000000000000000001001000000000000000000000000000010000000000000000000000000000000000100000000000100010110000110110011 ;
b11000000000000110000000000000000000000000000000000000000000000000000000000001001000000000000000000000000000010000000000000000000000000000000000100000000000100010110000110110011 p
b1000000001000xxxxxxxxxxxxxxxxxxxxxxxxxxxxxxxx :
b1000000001000xxxxxxxxxxxxxxxxxxxxxxxxxxxxxxxx s
b10000 1
b10000 r
b10000 }
b10000 /"
b10000 3"
1!
#75
0!
#80
b10000 +
b10000 ;"
b10000 A"
bx D
b11000 -
b11000 ("
b11000 ."
bx $
bx E
bx -"
x)
bx ?
bx F
bx ^
b11000 0
b11000 )"
b11000 4"
b10000 k
b1000000001000 a
0c
bx f
bx e
bx 1"
bx .
bx g
bx 2"
b1000000001000 0"
bx +"
bx *"
bx C
b0 ""
b0 $"
b11 %"
b1001 ~
1#"
b1001 Y
b1000 \
b1 '"
b10000 >"
bx <"
bx 8"
b10100 1
b10100 r
b10100 }
b10100 /"
b10100 3"
b10000xxxxxxxxxxxxxxxxxxxxxxxxxxxxxxxx :
b10000xxxxxxxxxxxxxxxxxxxxxxxxxxxxxxxx s
b10000000000001100000000000000000001000000001000xxxxxxxxxxxxxxxxxxxxxxxxxxxxxxxxxxxxxxxxxxxxxxxxxxxxxxxxxxxxxxxxxxxxxxxxxxxxxxxxxxxxxxxxxxxxxxxxxxxxxxxxxxxxxxxxxxxxxxxxxxxxxxxx ;
b10000000000001100000000000000000001000000001000xxxxxxxxxxxxxxxxxxxxxxxxxxxxxxxxxxxxxxxxxxxxxxxxxxxxxxxxxxxxxxxxxxxxxxxxxxxxxxxxxxxxxxxxxxxxxxxxxxxxxxxxxxxxxxxxxxxxxxxxxxxxxxxx p
b1100000000000000000000000000000000010000000000000000000000000000010010000000000000000000000000000100000011 <
b1100000000000000000000000000000000010000000000000000000000000000010010000000000000000000000000000100000011 h
b1000010000000000000000000000000000000000xxxxxxxxxxxxxxxxxxxxxxxxxxxxxxxxxxxxx 5
b1000010000000000000000000000000000000000xxxxxxxxxxxxxxxxxxxxxxxxxxxxxxxxxxxxx &"
1!
#85
0!
#90
b1001 +
b1001 ;"
b1001 A"
b11100 -
b11100 ("
b11100 ."
b0 @"
b0 >"
b1001 <"
15"
b11 8"
b1000000001000 ""
bx %"
bx ~
0#"
bx Y
bx \
bx '"
b10000 a
b10000 0"
b10100 k
b11100 0
b11100 )"
b11100 4"
b1000000000000000000000000000000000000000000000000000000000000100100011 5
b1000000000000000000000000000000000000000000000000000000000000100100011 &"
b10000000010000000100xxxxxxxxxxxxxxxxxxxxxxxxxxxxxxxxxxxxxxxxxxxxxxxxxxxxxxxxxxxxxxxxxxxxxxxxxxxxxxxxxxxxxxxxxxxxxxxxxxxxxx <
b10000000010000000100xxxxxxxxxxxxxxxxxxxxxxxxxxxxxxxxxxxxxxxxxxxxxxxxxxxxxxxxxxxxxxxxxxxxxxxxxxxxxxxxxxxxxxxxxxxxxxxxxxxxxx h
b10000000000001100000000000000000000000000010000xxxxxxxxxxxxxxxxxxxxxxxxxxxxxxxxxxxxxxxxxxxxxxxxxxxxxxxxxxxxxxxxxxxxxxxxxxxxxxxxxxxxxxxxxxxxxxxxxxxxxxxxxxxxxxxxxxxxxxxxxxxxxxxx ;
b10000000000001100000000000000000000000000010000xxxxxxxxxxxxxxxxxxxxxxxxxxxxxxxxxxxxxxxxxxxxxxxxxxxxxxxxxxxxxxxxxxxxxxxxxxxxxxxxxxxxxxxxxxxxxxxxxxxxxxxxxxxxxxxxxxxxxxxxxxxxxxxx p
b10100xxxxxxxxxxxxxxxxxxxxxxxxxxxxxxxx :
b10100xxxxxxxxxxxxxxxxxxxxxxxxxxxxxxxx s
b11000 1
b11000 r
b11000 }
b11000 /"
b11000 3"
1!
#95
0!
#100
b100000 -
b100000 ("
b100000 ."
bx +
bx ;"
bx A"
b100000 0
b100000 )"
b100000 4"
b11000 k
b10100 a
b10100 0"
b10000 ""
b1000000001000 >"
bx <"
05"
bx 8"
b11100 1
b11100 r
b11100 }
b11100 /"
b11100 3"
b11000xxxxxxxxxxxxxxxxxxxxxxxxxxxxxxxx :
b11000xxxxxxxxxxxxxxxxxxxxxxxxxxxxxxxx s
b10000000000001100000000000000000000000000010100xxxxxxxxxxxxxxxxxxxxxxxxxxxxxxxxxxxxxxxxxxxxxxxxxxxxxxxxxxxxxxxxxxxxxxxxxxxxxxxxxxxxxxxxxxxxxxxxxxxxxxxxxxxxxxxxxxxxxxxxxxxxxxxx ;
b10000000000001100000000000000000000000000010100xxxxxxxxxxxxxxxxxxxxxxxxxxxxxxxxxxxxxxxxxxxxxxxxxxxxxxxxxxxxxxxxxxxxxxxxxxxxxxxxxxxxxxxxxxxxxxxxxxxxxxxxxxxxxxxxxxxxxxxxxxxxxxxx p
b100000000100xxxxxxxxxxxxxxxxxxxxxxxxxxxxxxxxxxxxxxxxxxxxxxxxxxxxxxxxxxxxxxxxxxxxxxxxxxxxxxxxxxxxxxxxxxxxxxxxxxxxxx <
b100000000100xxxxxxxxxxxxxxxxxxxxxxxxxxxxxxxxxxxxxxxxxxxxxxxxxxxxxxxxxxxxxxxxxxxxxxxxxxxxxxxxxxxxxxxxxxxxxxxxxxxxxx h
b100000000100000000000000000000000000000000000000xxxxxxxxxxxxxxxxxxxxxxxxxxxxxxxxxxxxx 5
b100000000100000000000000000000000000000000000000xxxxxxxxxxxxxxxxxxxxxxxxxxxxxxxxxxxxx &"
1!
