RISC_V.vcd
$date
	Sun Aug 24 16:38:27 2025
$end
$version
	Icarus Verilog
$end
$timescale
	1s
$end
$scope module Testbench $end
$var reg 1 ! clk $end
$var reg 1 " rst $end
$scope module uut $end
$var wire 1 ! clk $end
$var wire 1 " rst $end
$var wire 1 # x $end
$var wire 32 $ rdB [31:0] $end
$var wire 32 % instruction [31:0] $end
$var wire 32 & data2 [31:0] $end
$var wire 32 ' data1 [31:0] $end
$var wire 1 ( Zero_branch $end
$var wire 1 ) Zero $end
$var wire 2 * ResultSrc [1:0] $end
$var wire 32 + Result [31:0] $end
$var wire 1 , RegWrite $end
$var wire 32 - PC_next [31:0] $end
$var wire 32 . PC_ALU_Sum [31:0] $end
$var wire 1 / PCSrc $end
$var wire 32 0 PCPlus4 [31:0] $end
$var wire 32 1 PC [31:0] $end
$var wire 1 2 MemWrite $end
$var wire 32 3 MemReadData [31:0] $end
$var wire 1 4 MemRead $end
$var wire 104 5 MEM_WB [103:0] $end
$var wire 1 6 JumpReg $end
$var wire 1 7 Jump $end
$var wire 2 8 ImmType [1:0] $end
$var wire 32 9 ImmExt [31:0] $end
$var wire 64 : IF_ID [63:0] $end
$var wire 176 ; ID_EX [175:0] $end
$var wire 141 < EX_MEM [140:0] $end
$var wire 1 = Carry $end
$var wire 1 > Branch $end
$var wire 32 ? ALUresult [31:0] $end
$var wire 1 @ ALUSrc $end
$var wire 4 A ALUControl [3:0] $end
$scope module ALU $end
$var wire 4 B ALUControl [3:0] $end
$var wire 1 = Carry $end
$var wire 32 C rdA [31:0] $end
$var wire 5 D shamt [4:0] $end
$var wire 32 E rdB [31:0] $end
$var wire 1 ) Zero $end
$var reg 32 F ALUresult [31:0] $end
$var reg 1 G Cout $end
$upscope $end
$scope module ALU_branch $end
$var wire 1 H Carry $end
$var wire 5 I shamt [4:0] $end
$var wire 32 J rdB [31:0] $end
$var wire 32 K rdA [31:0] $end
$var wire 1 ( Zero $end
$var wire 4 L ALUControl [3:0] $end
$var reg 32 M ALUresult [31:0] $end
$var reg 1 N Cout $end
$upscope $end
$scope module Control_Unit $end
$var wire 1 ( Zero $end
$var wire 3 O funct3 [2:0] $end
$var wire 7 P funct7 [6:0] $end
$var wire 7 Q opcode [6:0] $end
$var wire 1 " rst $end
$var wire 4 R r_type_ALUControl [3:0] $end
$var wire 1 / PCSrc $end
$var reg 4 S ALUControl [3:0] $end
$var reg 1 @ ALUSrc $end
$var reg 1 > Branch $end
$var reg 2 T ImmType [1:0] $end
$var reg 1 7 Jump $end
$var reg 1 6 JumpReg $end
$var reg 1 4 MemRead $end
$var reg 1 2 MemWrite $end
$var reg 1 , RegWrite $end
$var reg 2 U ResultSrc [1:0] $end
$scope module r_type_alu_ctrl_inst $end
$var wire 3 V funct3 [2:0] $end
$var wire 7 W funct7 [6:0] $end
$var reg 4 X ALUControl [3:0] $end
$upscope $end
$upscope $end
$scope module Data_Memory $end
$var wire 32 Y ALUresult [31:0] $end
$var wire 1 Z MemRead $end
$var wire 1 [ MemWrite $end
$var wire 32 \ MemWriteData [31:0] $end
$var wire 1 ! clk $end
$var wire 32 ] MemReadData [31:0] $end
$upscope $end
$scope module EXMEM $end
$var wire 32 ^ ALUresult [31:0] $end
$var wire 1 _ Branch $end
$var wire 2 ` Mem_Con [1:0] $end
$var wire 32 a PC [31:0] $end
$var wire 1 b PCSrc $end
$var wire 1 c Reg_Con $end
$var wire 2 d ResultSrc [1:0] $end
$var wire 1 ) Zero $end
$var wire 1 ! clk $end
$var wire 32 e data2 [31:0] $end
$var wire 5 f rd_ID_EX [4:0] $end
$var wire 1 " rst $end
$var wire 32 g PC_ALU_Sum [31:0] $end
$var reg 141 h EX_MEM [140:0] $end
$upscope $end
$scope module IDEX $end
$var wire 13 i Ex_Con [12:0] $end
$var wire 2 j Mem_Con [1:0] $end
$var wire 32 k PC [31:0] $end
$var wire 1 , Reg_Con $end
$var wire 1 ! clk $end
$var wire 32 l instruction [31:0] $end
$var wire 1 " rst $end
$var wire 32 m data2 [31:0] $end
$var wire 32 n data1 [31:0] $end
$var wire 32 o ImmExt [31:0] $end
$var reg 176 p ID_EX [175:0] $end
$upscope $end
$scope module IFID $end
$var wire 1 ! clk $end
$var wire 1 " rst $end
$var wire 32 q instruction [31:0] $end
$var wire 32 r PC [31:0] $end
$var reg 64 s IF_ID [63:0] $end
$var reg 64 t IF_ID_nxt [63:0] $end
$upscope $end
$scope module Imm0 $end
$var wire 2 u ImmType [1:0] $end
$var wire 32 v instruction [31:0] $end
$var wire 20 w u_imm [19:0] $end
$var wire 12 x s_imm [11:0] $end
$var wire 12 y i_imm [11:0] $end
$var wire 12 z b_imm [11:0] $end
$var reg 32 { ImmExt [31:0] $end
$upscope $end
$scope module Inst_Mem $end
$var wire 1 " rst $end
$var wire 32 | instruction [31:0] $end
$var wire 32 } PC [31:0] $end
$upscope $end
$scope module MEMWB $end
$var wire 32 ~ ALUresult [31:0] $end
$var wire 32 !" MemReadData [31:0] $end
$var wire 32 "" PC [31:0] $end
$var wire 1 #" Reg_Con $end
$var wire 2 $" ResultSrc [1:0] $end
$var wire 1 ! clk $end
$var wire 5 %" rd_EXMEM [4:0] $end
$var wire 1 " rst $end
$var reg 104 &" MEM_WB [103:0] $end
$upscope $end
$scope module MultiPC $end
$var wire 32 '" B [31:0] $end
$var wire 1 # sel $end
$var wire 32 (" Out [31:0] $end
$var wire 32 )" A [31:0] $end
$upscope $end
$scope module Multiplex_ALU $end
$var wire 32 *" A [31:0] $end
$var wire 32 +" B [31:0] $end
$var wire 1 ," sel $end
$var wire 32 -" Out [31:0] $end
$upscope $end
$scope module PC0 $end
$var wire 32 ." PC_next [31:0] $end
$var wire 1 ! clk $end
$var wire 1 " rst $end
$var reg 32 /" PC [31:0] $end
$upscope $end
$scope module PC_ALU_Adder0 $end
$var wire 32 0" A [31:0] $end
$var wire 32 1" B [31:0] $end
$var wire 32 2" Sum [31:0] $end
$upscope $end
$scope module PCplus4 $end
$var wire 32 3" PC [31:0] $end
$var wire 1 " rst $end
$var wire 32 4" PCPlus4 [31:0] $end
$upscope $end
$scope module Register $end
$var wire 1 5" RegWrite $end
$var wire 1 ! clk $end
$var wire 5 6" rs1 [4:0] $end
$var wire 5 7" rs2 [4:0] $end
$var wire 1 " rst $end
$var wire 5 8" w_add [4:0] $end
$var wire 32 9" data2 [31:0] $end
$var wire 32 :" data1 [31:0] $end
$var wire 32 ;" RegWriteData [31:0] $end
$upscope $end
$scope module multipplex_result0 $end
$var wire 32 <" A [31:0] $end
$var wire 32 =" B [31:0] $end
$var wire 32 >" C [31:0] $end
$var wire 32 ?" D [31:0] $end
$var wire 2 @" sel [1:0] $end
$var wire 32 A" Result [31:0] $end
$upscope $end
$upscope $end
$upscope $end
$enddefinitions $end
$comment Show the parameter values. $end
$dumpall
$end
#0
$dumpvars
b0 A"
b0 @"
b0 ?"
b0 >"
b0 ="
b0 <"
b0 ;"
b0 :"
b0 9"
b0 8"
b0 7"
b0 6"
05"
b0 4"
b0 3"
b0 2"
b0 1"
b0 0"
b0 /"
b0 ."
b0 -"
0,"
b0 +"
b0 *"
b0 )"
b0 ("
b0 '"
b0 &"
b0 %"
b0 $"
0#"
b0 ""
b0 !"
b0 ~
b0 }
b0 |
b0 {
b0 z
b0 y
b0 x
b0 w
b0 v
b0 u
b0 t
b0 s
b0 r
b0 q
b0 p
b0 o
b0 n
b0 m
b0 l
b0 k
b0 j
b0 i
b0 h
b0 g
b0 f
b0 e
b0 d
0c
0b
b0 a
b0 `
0_
b0 ^
b0 ]
b0 \
0[
0Z
b0 Y
b0 X
b0 W
b0 V
b0 U
b0 T
b0 S
b0 R
b0 Q
b0 P
b0 O
0N
b0 M
b0 L
b0 K
b0 J
b0 I
0H
0G
b0 F
b0 E
b0 D
b0 C
b0 B
b0 A
0@
b0 ?
0>
0=
b0 <
b0 ;
b0 :
b0 9
b0 8
07
06
b0 5
04
b0 3
02
b0 1
b0 0
0/
b0 .
b0 -
0,
b0 +
b0 *
1)
1(
b0 '
b0 &
b0 %
b0 $
0#
0"
1!
$end
#2
b100 -
b100 ("
b100 ."
b100010000000110110011 %
b100010000000110110011 q
b100010000000110110011 |
b100 0
b100 )"
b100 4"
1"
#5
0!
#10
b100000000010 z
b1 9
b1 o
b1 {
b1010 I
0(
b10011 M
b1 y
b11 x
b100010000 w
b1010 &
b1010 J
b1010 m
b1010 9"
b1001 '
b1001 K
b1001 n
b1001 :"
1,
b1000 -
b1000 ("
b1000 ."
b1000000001000001000001000110011 %
b1000000001000001000001000110011 q
b1000000001000001000001000110011 |
b100010000000110110011 l
b100010000000110110011 v
b1 7"
b10 6"
b110011 Q
b1000 0
b1000 )"
b1000 4"
b1000000000000000000000000000000000000000000000000000000000000000000000 <
b1000000000000000000000000000000000000000000000000000000000000000000000 h
b100010000000110110011 :
b100010000000110110011 s
b100 1
b100 r
b100 }
b100 /"
b100 3"
1!
#15
0!
#20
b10000000100 z
b10000000010 9
b10000000010 o
b10000000010 {
b1001 I
0(
b1 M
b1 i
b1 A
b1 L
b1 S
b1010 D
b1100 -
b1100 ("
b1100 ."
b110000010000001010010011 %
b110000010000001010010011 q
b110000010000001010010011 |
b10000000010 y
b10000000100 x
b1000000001000001000 w
b1001 &
b1001 J
b1001 m
b1001 9"
b1010 '
b1010 K
b1010 n
b1010 :"
b1 R
b1 X
b1010 $
b1010 E
b1010 -"
0)
b10011 ?
b10011 F
b10011 ^
b1100 0
b1100 )"
b1100 4"
b1000000001000001000001000110011 l
b100 k
b1000000001000001000001000110011 v
b10 7"
b1 6"
b100000 P
b100000 W
1c
b11 f
b1010 e
b1 .
b1 g
b1 2"
b1 1"
b1 +"
b1010 *"
b1001 C
b1000 1
b1000 r
b1000 }
b1000 /"
b1000 3"
b10001000000001000001000001000110011 :
b10001000000001000001000001000110011 s
b10000000000000000000000000000000000000000000000000000000000000000000000000001001000000000000000000000000000010100000000000000000000000000000000100000000000100010000000110110011 ;
b10000000000000000000000000000000000000000000000000000000000000000000000000001001000000000000000000000000000010100000000000000000000000000000000100000000000100010000000110110011 p
1!
#25
0!
#30
b1001 D
b100000000100 z
b1100 9
b1100 o
b1100 {
bx I
xH
xN
x(
bx M
b1001 $
b1001 E
b1001 -"
0)
b1 ?
b1 F
b1 ^
b1100 y
b101 x
b110000010000 w
bx &
bx J
bx m
bx 9"
b1001 '
b1001 K
b1001 n
b1001 :"
b0 R
b0 X
b0 A
b0 L
b0 S
b1000000000000 i
1@
b10000 -
b10000 ("
b10000 ."
b1000010001001100010011 %
b1000010001001100010011 q
b1000010001001100010011 |
b11 %"
b10011 ~
1#"
b10011 Y
b1010 \
b1 '"
b100 a
b100 f
b1001 e
b10000000010 1"
b10000000110 .
b10000000110 g
b10000000110 2"
b100 0"
b10000000010 +"
b1001 *"
b1 B
b1010 C
b110000010000001010010011 l
b1000 k
b110000010000001010010011 v
b1100 7"
b10 6"
b0 P
b0 W
b10011 Q
b10000 0
b10000 )"
b10000 4"
b1000000000000000000000000000000000010000000000000000000000000000100110000000000000000000000000000101000011 <
b1000000000000000000000000000000000010000000000000000000000000000100110000000000000000000000000000101000011 h
b10000000000000010000000000000000000000000000010000000000000000000000000000001010000000000000000000000000000010010000000000000000000001000000001001000000001000001000001000110011 ;
b10000000000000010000000000000000000000000000010000000000000000000000000000001010000000000000000000000000000010010000000000000000000001000000001001000000001000001000001000110011 p
b100000000000110000010000001010010011 :
b100000000000110000010000001010010011 s
b1100 1
b1100 r
b1100 }
b1100 /"
b1100 3"
1!
#35
0!
#40
b110 z
b10 9
b10 o
b10 {
b1001 I
0(
b1001000000000 M
b1100 D
b10100 -
b10100 ("
b10100 ."
b111000001010001110000011 %
b111000001010001110000011 q
b111000001010001110000011 |
b10 y
b110 x
b1000010001 w
b1001 &
b1001 J
b1001 m
b1001 9"
b111 R
b111 X
b1000000000111 i
b111 A
b111 L
b111 S
b1100 $
b1100 E
b1100 -"
0)
b10101 ?
b10101 F
b10101 ^
b10011 +
b10011 ;"
b10011 A"
b10100 0
b10100 )"
b10100 4"
b1000010001001100010011 l
b1100 k
b1000010001001100010011 v
b10 7"
b1 O
b1 V
b1000 a
b101 f
bx e
b1100 1"
b10100 .
b10100 g
b10100 2"
b1000 0"
1,"
b1100 +"
bx *"
b0 B
b1001 C
b100 ""
b100 %"
b1 ~
b1 Y
b1001 \
b10000000110 '"
b10011 <"
15"
b11 8"
b10000 1
b10000 r
b10000 }
b10000 /"
b10000 3"
b110000000000001000010001001100010011 :
b110000000000001000010001001100010011 s
b10010000000000000000000000000000000000000000100000000000000000000000000000001001xxxxxxxxxxxxxxxxxxxxxxxxxxxxxxxx0000000000000000000000000000110000000000110000010000001010010011 ;
b10010000000000000000000000000000000000000000100000000000000000000000000000001001xxxxxxxxxxxxxxxxxxxxxxxxxxxxxxxx0000000000000000000000000000110000000000110000010000001010010011 p
b1000001000000000000000000000000100000001100000000000000000000000000000000010000000000000000000000000000100100100 <
b1000001000000000000000000000000100000001100000000000000000000000000000000010000000000000000000000000000100100100 h
b1000000000000000000000000000000000000000000000000000000000001001100011 5
b1000000000000000000000000000000000000000000000000000000000001001100011 &"
1!
#45
0!
#50
b10 D
b100000000110 z
b1110 9
b1110 o
b1110 {
bx I
x(
bx M
b1 +
b1 ;"
b1 A"
b10 $
b10 E
b10 -"
0)
b100100 ?
b100100 F
b100100 ^
b1110 y
b111 x
b111000001010 w
bx &
bx J
bx m
bx 9"
b1010 '
b1010 K
b1010 n
b1010 :"
b101 R
b101 X
b0 A
b0 L
b0 S
b1001000000000 i
b1 *
b1 U
b1 j
14
b11000 -
b11000 ("
b11000 ."
b10001000001100010001100011 %
b10001000001100010001100011 q
b10001000001100010001100011 |
b100 >"
b1 <"
b100 8"
b1000 ""
b101 %"
b10101 ~
b10101 Y
bx \
b10100 '"
b1100 a
b110 f
b1001 e
b10 1"
b1110 .
b1110 g
b1110 2"
b1100 0"
b10 +"
b1001 *"
b111 B
b111000001010001110000011 l
b10000 k
b111000001010001110000011 v
b1110 7"
b1 6"
b10 O
b10 V
b11 Q
b11000 0
b11000 )"
b11000 4"
b100001000000000000000000000000000000000000000000000000000000000000000100100 5
b100001000000000000000000000000000000000000000000000000000000000000000100100 &"
b1000000100000000000000000000000000000010100000000000000000000000000000010101xxxxxxxxxxxxxxxxxxxxxxxxxxxxxxxx00101 <
b1000000100000000000000000000000000000010100000000000000000000000000000010101xxxxxxxxxxxxxxxxxxxxxxxxxxxxxxxx00101 h
b10010000000001110000000000000000000000000000110000000000000000000000000000001001000000000000000000000000000010010000000000000000000000000000001000000000001000010001001100010011 ;
b10010000000001110000000000000000000000000000110000000000000000000000000000001001000000000000000000000000000010010000000000000000000000000000001000000000001000010001001100010011 p
b1000000000000111000001010001110000011 :
b1000000000000111000001010001110000011 s
b10100 1
b10100 r
b10100 }
b10100 /"
b10100 3"
1!
#55
0!
#60
0/
b101000 z
b1001 I
1(
b0 M
b101000 9
b101000 o
b101000 {
b1110 D
b11100 -
b11100 ("
b11100 ."
b11100001010001000100011 %
b11100001010001000100011 q
b11100001010001000100011 |
b100010 y
b101000 x
b10001000001100 w
b1001 &
b1001 J
b1001 m
b1001 9"
b0 R
b0 X
b101 A
b101 L
b101 S
0,
b10 8
b10 T
b10 u
0@
b1000100101 i
0>
b1110 $
b1110 E
b1110 -"
0)
b11000 ?
b11000 F
b11000 ^
b10101 +
b10101 ;"
b10101 A"
b11100 0
b11100 )"
b11100 4"
b10001000001100010001100011 l
b10100 k
b10001000001100010001100011 v
b10 7"
b1 P
b1 W
b100 O
b100 V
b1100011 Q
b10000 a
b1 d
b1 `
b111 f
bx e
b1110 1"
b11110 .
b11110 g
b11110 2"
b10000 0"
b1110 +"
bx *"
b0 B
b1010 C
b1100 ""
b110 %"
b100100 ~
b100100 Y
b1001 \
b1110 '"
b1000 >"
b10101 <"
b101 8"
b11000 1
b11000 r
b11000 }
b11000 /"
b11000 3"
b1010000000010001000001100010001100011 :
b1010000000010001000001100010001100011 s
b10110010000000000000000000000000000000000001000000000000000000000000000000001010xxxxxxxxxxxxxxxxxxxxxxxxxxxxxxxx0000000000000000000000000000111000000000111000001010001110000011 ;
b10110010000000000000000000000000000000000001000000000000000000000000000000001010xxxxxxxxxxxxxxxxxxxxxxxxxxxxxxxx0000000000000000000000000000111000000000111000001010001110000011 p
b11000001000000000000000000000000000000011100000000000000000000000000001001000000000000000000000000000000100100110 <
b11000001000000000000000000000000000000011100000000000000000000000000001001000000000000000000000000000000100100110 h
b1000001000000000000000000000000000000000000000000000000000000000001010100101 5
b1000001000000000000000000000000000000000000000000000000000000000001010100101 &"
1!
#65
0!
#70
b1001 D
b100 z
b1101 I
0H
0N
0(
b10111 M
b100 9
b100 o
b100 {
b100100 +
b100100 ;"
b100100 A"
b10111 3
b10111 ]
b10111 !"
b1001 $
b1001 E
b1001 -"
1)
b0 ?
b0 F
b0 ^
b111 y
b100 x
b11100001010 w
b1101 &
b1101 J
b1101 m
b1101 9"
b101 R
b101 X
b0 A
b0 L
b0 S
b1 8
b1 T
b1 u
b1001000010000 i
1@
b11 j
12
b100000 -
b100000 ("
b100000 ."
bx %
bx q
bx |
b1100 >"
b100100 <"
b110 8"
b10000 ""
b1 $"
b111 %"
b11000 ~
b11000 Y
bx \
1Z
b11110 '"
b10100 a
0c
b1000 f
b1001 e
b101000 1"
b111100 .
b111100 g
b111100 2"
b10100 0"
0,"
b101000 +"
b1001 *"
b101 B
b11100001010001000100011 l
b11000 k
b11100001010001000100011 v
b111 7"
b0 P
b0 W
b10 O
b10 V
b100011 Q
b100000 0
b100000 )"
b100000 4"
b1100001000000000000000000000000000000000000000000000000000000000010010000110 5
b1100001000000000000000000000000000000000000000000000000000000000010010000110 &"
b10000010101000000000000000000000000000011110000000000000000000000000000011000xxxxxxxxxxxxxxxxxxxxxxxxxxxxxxxx00111 <
b10000010101000000000000000000000000000011110000000000000000000000000000011000xxxxxxxxxxxxxxxxxxxxxxxxxxxxxxxx00111 h
b100010001001010000000000000000000000000001010000000000000000000000000000001010000000000000000000000000000010010000000000000000000000000010100000000010001000001100010001100011 ;
b100010001001010000000000000000000000000001010000000000000000000000000000001010000000000000000000000000000010010000000000000000000000000010100000000010001000001100010001100011 p
b1100000000000011100001010001000100011 :
b1100000000000011100001010001000100011 s
b11100 1
b11100 r
b11100 }
b11100 /"
b11100 3"
1!
#75
0!
#80
bx0 z
bx 9
bx o
bx {
bx I
xH
xN
x(
bx M
b100 D
b10101 3
b10101 ]
b10101 !"
b100100 -
b100100 ("
b100100 ."
bx y
bx x
bx w
bx &
bx J
bx m
bx 9"
bx '
bx K
bx n
bx :"
b0 R
b0 X
b100 $
b100 E
b100 -"
0)
b1110 ?
b1110 F
b1110 ^
b10111 +
b10111 ;"
b10111 A"
b100100 0
b100100 )"
b100100 4"
bx l
b11100 k
bx v
bx 7"
bx 6"
bx P
bx W
bx O
bx V
bx Q
b11000 a
b11 `
b100 f
b1101 e
b100 1"
b11100 .
b11100 g
b11100 2"
b11000 0"
1,"
b100 +"
b1101 *"
b0 B
b10100 ""
b1000 %"
b0 ~
0#"
b0 Y
b1001 \
b111100 '"
b1 @"
b10000 >"
b10111 ="
b11000 <"
b111 8"
b100000 1
b100000 r
b100000 }
b100000 /"
b100000 3"
b11100xxxxxxxxxxxxxxxxxxxxxxxxxxxxxxxx :
b11100xxxxxxxxxxxxxxxxxxxxxxxxxxxxxxxx s
b1110010000100000000000000000000000000000001100000000000000000000000000000001010000000000000000000000000000011010000000000000000000000000000010000000000011100001010001000100011 ;
b1110010000100000000000000000000000000000001100000000000000000000000000000001010000000000000000000000000000011010000000000000000000000000000010000000000011100001010001000100011 p
b101000100010000000000000000000000000001111001000000000000000000000000000000000000000000000000000000000000100101000 <
b101000100010000000000000000000000000001111001000000000000000000000000000000000000000000000000000000000000100101000 h
b10000011000000000000000000000000000101110000000000000000000000000001100000111 5
b10000011000000000000000000000000000101110000000000000000000000000001100000111 &"
1!
#85
0!
#90
b10101 +
b10101 ;"
b10101 A"
bx 3
bx ]
bx !"
bx D
bx $
bx E
bx -"
x=
xG
x)
bx ?
bx F
bx ^
b101000 -
b101000 ("
b101000 ."
b10100 >"
b10101 ="
b0 <"
05"
b1000 8"
b11000 ""
b100 %"
b1110 ~
b1110 Y
b1101 \
1[
b11100 '"
b11100 a
bx f
bx e
bx 1"
bx .
bx g
bx 2"
b11100 0"
bx +"
bx *"
bx C
b100000 k
b101000 0
b101000 )"
b101000 4"
b10100010000000000000000000000000000101010000000000000000000000000000000001000 5
b10100010000000000000000000000000000101010000000000000000000000000000000001000 &"
b110000100110000000000000000000000000000111000000000000000000000000000000011100000000000000000000000000000110100100 <
b110000100110000000000000000000000000000111000000000000000000000000000000011100000000000000000000000000000110100100 h
b11100100001000000000000000000000000000000011100xxxxxxxxxxxxxxxxxxxxxxxxxxxxxxxxxxxxxxxxxxxxxxxxxxxxxxxxxxxxxxxxxxxxxxxxxxxxxxxxxxxxxxxxxxxxxxxxxxxxxxxxxxxxxxxxxxxxxxxxxxxxxxxx ;
b11100100001000000000000000000000000000000011100xxxxxxxxxxxxxxxxxxxxxxxxxxxxxxxxxxxxxxxxxxxxxxxxxxxxxxxxxxxxxxxxxxxxxxxxxxxxxxxxxxxxxxxxxxxxxxxxxxxxxxxxxxxxxxxxxxxxxxxxxxxxxxxx p
b100000xxxxxxxxxxxxxxxxxxxxxxxxxxxxxxxx :
b100000xxxxxxxxxxxxxxxxxxxxxxxxxxxxxxxx s
b100100 1
b100100 r
b100100 }
b100100 /"
b100100 3"
1!
#95
0!
#100
bx +
bx ;"
bx A"
b101100 -
b101100 ("
b101100 ."
bx 3
bx ]
bx !"
b101100 0
b101100 )"
b101100 4"
b100100 k
b100000 a
b100000 0"
b11100 ""
bx %"
bx ~
bx Y
bx \
bx '"
b11000 >"
bx ="
b1110 <"
b100 8"
b101000 1
b101000 r
b101000 }
b101000 /"
b101000 3"
b100100xxxxxxxxxxxxxxxxxxxxxxxxxxxxxxxx :
b100100xxxxxxxxxxxxxxxxxxxxxxxxxxxxxxxx s
b11100100001000000000000000000000000000000100000xxxxxxxxxxxxxxxxxxxxxxxxxxxxxxxxxxxxxxxxxxxxxxxxxxxxxxxxxxxxxxxxxxxxxxxxxxxxxxxxxxxxxxxxxxxxxxxxxxxxxxxxxxxxxxxxxxxxxxxxxxxxxxxx ;
b11100100001000000000000000000000000000000100000xxxxxxxxxxxxxxxxxxxxxxxxxxxxxxxxxxxxxxxxxxxxxxxxxxxxxxxxxxxxxxxxxxxxxxxxxxxxxxxxxxxxxxxxxxxxxxxxxxxxxxxxxxxxxxxxxxxxxxxxxxxxxxxx p
b111000100110xxxxxxxxxxxxxxxxxxxxxxxxxxxxxxxxxxxxxxxxxxxxxxxxxxxxxxxxxxxxxxxxxxxxxxxxxxxxxxxxxxxxxxxxxxxxxxxxxxxxxx <
b111000100110xxxxxxxxxxxxxxxxxxxxxxxxxxxxxxxxxxxxxxxxxxxxxxxxxxxxxxxxxxxxxxxxxxxxxxxxxxxxxxxxxxxxxxxxxxxxxxxxxxxxxx h
b11000010xxxxxxxxxxxxxxxxxxxxxxxxxxxxxxxx0000000000000000000000000000111000100 5
b11000010xxxxxxxxxxxxxxxxxxxxxxxxxxxxxxxx0000000000000000000000000000111000100 &"
1!
