Processor_Files/RISC_V.vcd
$date
	Sat Oct 11 23:02:00 2025
$end
$version
	Icarus Verilog
$end
$timescale
	1s
$end
$scope module Testbench $end
$var reg 1 ! clk $end
$var reg 1 " rst $end
$scope module uut $end
$var wire 1 # Zero_branch $end
$var wire 1 ! clk $end
$var wire 1 " rst $end
$var wire 5 $ rs2_ID [4:0] $end
$var wire 5 % rs1_ID [4:0] $end
$var wire 32 & rf_data2 [31:0] $end
$var wire 32 ' rf_data1 [31:0] $end
$var wire 5 ( rd_ID_EX_EX [4:0] $end
$var wire 5 ) rd_ID [4:0] $end
$var wire 5 * rd_EXMEM_MEM [4:0] $end
$var wire 32 + rdB_ForwB [31:0] $end
$var wire 32 , rdB [31:0] $end
$var wire 32 - rdA [31:0] $end
$var wire 1 . is_compressed $end
$var wire 2 / isPC_select_ID [1:0] $end
$var wire 2 0 isPC_select [1:0] $end
$var wire 32 1 instruction_IF [31:0] $end
$var wire 32 2 instruction_ID [31:0] $end
$var wire 32 3 instruction [31:0] $end
$var wire 32 4 initial_instr [31:0] $end
$var wire 32 5 data2_ID [31:0] $end
$var wire 32 6 data2_EX [31:0] $end
$var wire 32 7 data2 [31:0] $end
$var wire 32 8 data1_ID_ForwA [31:0] $end
$var wire 32 9 data1_ID [31:0] $end
$var wire 32 : data1 [31:0] $end
$var wire 32 ; compress_instr [31:0] $end
$var wire 1 < Zero_EX $end
$var wire 1 = Zero $end
$var wire 2 > ResultSrc_MEM [1:0] $end
$var wire 2 ? ResultSrc_ID [1:0] $end
$var wire 2 @ ResultSrc_EX [1:0] $end
$var wire 2 A ResultSrcHZ [1:0] $end
$var wire 2 B ResultSrc [1:0] $end
$var wire 32 C Result [31:0] $end
$var wire 1 D RegWrite_MEM $end
$var wire 1 E RegWrite_ID $end
$var wire 1 F RegWrite_EX $end
$var wire 1 G RegWriteHZ $end
$var wire 1 H RegWrite $end
$var wire 32 I PC_next_MEM [31:0] $end
$var wire 32 J PC_next_IF [31:0] $end
$var wire 32 K PC_next_ID [31:0] $end
$var wire 32 L PC_next_EX [31:0] $end
$var wire 32 M PC_next [31:0] $end
$var wire 32 N PC_MEM [31:0] $end
$var wire 32 O PC_IF [31:0] $end
$var wire 32 P PC_ID [31:0] $end
$var wire 32 Q PC_EX [31:0] $end
$var wire 32 R PC_Branch [31:0] $end
$var wire 32 S PC_ALU_Sum_EX [31:0] $end
$var wire 32 T PC_ALU_Sum [31:0] $end
$var wire 1 U PCWriteEN $end
$var wire 1 V PCSrc_EX $end
$var wire 1 W PCSrc $end
$var wire 32 X PCPlus4 [31:0] $end
$var wire 32 Y PC [31:0] $end
$var wire 1 Z NOP $end
$var wire 2 [ Mem_Con_ID [1:0] $end
$var wire 2 \ Mem_Con_EX [1:0] $end
$var wire 1 ] MemWriteHZ $end
$var wire 1 ^ MemWrite $end
$var wire 1 _ MemReadHZ $end
$var wire 32 ` MemReadData_MEM [31:0] $end
$var wire 32 a MemReadData [31:0] $end
$var wire 1 b MemRead $end
$var wire 1 c Jump_ID $end
$var wire 1 d JumpReg_ID $end
$var wire 1 e JumpRegHZ $end
$var wire 1 f JumpReg $end
$var wire 1 g JumpHZ $end
$var wire 1 h Jump $end
$var wire 3 i ImmType_ID [2:0] $end
$var wire 3 j ImmTypeHZ [2:0] $end
$var wire 3 k ImmType [2:0] $end
$var wire 32 l ImmExt_ID [31:0] $end
$var wire 32 m ImmExt [31:0] $end
$var wire 1 n IF_ID_WriteEN $end
$var wire 2 o ForwardB [1:0] $end
$var wire 2 p ForwardA [1:0] $end
$var wire 1 q Flush $end
$var wire 1 r Carry $end
$var wire 1 s Branch_ID $end
$var wire 1 t Branch_EX $end
$var wire 1 u BranchHZ $end
$var wire 1 v Branch $end
$var wire 1 w B_Zero_ID $end
$var wire 1 x B_Zero $end
$var wire 32 y ALUresult_MEM [31:0] $end
$var wire 32 z ALUresult_EX [31:0] $end
$var wire 32 { ALUresult [31:0] $end
$var wire 1 | ALUSrc_ID $end
$var wire 1 } ALUSrcHZ $end
$var wire 1 ~ ALUSrc $end
$var wire 5 !" ALUControl_ID [4:0] $end
$var wire 5 "" ALUControlHZ [4:0] $end
$var wire 5 #" ALUControl [4:0] $end
$scope module ALU $end
$var wire 1 r Carry $end
$var wire 5 $" shamt [4:0] $end
$var wire 32 %" rdB [31:0] $end
$var wire 32 &" rdA [31:0] $end
$var wire 64 '" mul_result [63:0] $end
$var wire 1 = Zero $end
$var wire 5 (" ALUControl [4:0] $end
$var reg 32 )" ALUresult [31:0] $end
$var reg 1 *" Cout $end
$upscope $end
$scope module Control_Unit $end
$var wire 1 # Zero $end
$var wire 3 +" funct3 [2:0] $end
$var wire 7 ," funct7 [6:0] $end
$var wire 7 -" opcode [6:0] $end
$var wire 1 " rst $end
$var wire 5 ." r_type_ALUControl [4:0] $end
$var reg 5 /" ALUControl [4:0] $end
$var reg 1 ~ ALUSrc $end
$var reg 1 x B_Zero $end
$var reg 1 v Branch $end
$var reg 3 0" ImmType [2:0] $end
$var reg 1 h Jump $end
$var reg 1 f JumpReg $end
$var reg 1 b MemRead $end
$var reg 1 ^ MemWrite $end
$var reg 1 H RegWrite $end
$var reg 2 1" ResultSrc [1:0] $end
$var reg 2 2" isPC_select [1:0] $end
$scope module r_type_alu_ctrl_inst $end
$var wire 3 3" funct3 [2:0] $end
$var wire 7 4" funct7 [6:0] $end
$var reg 5 5" ALUControl [4:0] $end
$upscope $end
$upscope $end
$scope module Ctrl_Mux $end
$var wire 5 6" ALUControl [4:0] $end
$var wire 1 ~ ALUSrc $end
$var wire 1 v Branch $end
$var wire 3 7" ImmType [2:0] $end
$var wire 1 h Jump $end
$var wire 1 f JumpReg $end
$var wire 1 b MemRead $end
$var wire 1 ^ MemWrite $end
$var wire 1 H RegWrite $end
$var wire 2 8" ResultSrc [1:0] $end
$var wire 1 Z sel $end
$var wire 2 9" ResultSrcHZ [1:0] $end
$var wire 1 G RegWriteHZ $end
$var wire 1 ] MemWriteHZ $end
$var wire 1 _ MemReadHZ $end
$var wire 1 e JumpRegHZ $end
$var wire 1 g JumpHZ $end
$var wire 3 :" ImmTypeHZ [2:0] $end
$var wire 1 u BranchHZ $end
$var wire 1 } ALUSrcHZ $end
$var wire 5 ;" ALUControlHZ [4:0] $end
$upscope $end
$scope module Data_Memory $end
$var wire 1 <" MemRead $end
$var wire 1 =" MemWrite $end
$var wire 1 ! clk $end
$var wire 32 >" MemWriteData [31:0] $end
$var wire 32 ?" MemReadData [31:0] $end
$var wire 32 @" ALUresult [31:0] $end
$upscope $end
$scope module Decomp_Mux $end
$var wire 2 A" instr [1:0] $end
$var wire 1 . is_compressed $end
$upscope $end
$scope module Decompressor $end
$var wire 16 B" c_instr [15:0] $end
$var wire 5 C" rs2_prime [4:0] $end
$var wire 5 D" rs2 [4:0] $end
$var wire 5 E" rs1_prime [4:0] $end
$var wire 5 F" rs1 [4:0] $end
$var wire 5 G" rd_prime [4:0] $end
$var wire 5 H" rd [4:0] $end
$var wire 2 I" op [1:0] $end
$var wire 3 J" funct3 [2:0] $end
$var reg 3 K" final_funct3 [2:0] $end
$var reg 7 L" final_funct7 [6:0] $end
$var reg 7 M" final_opcode [6:0] $end
$var reg 5 N" final_rd [4:0] $end
$var reg 5 O" final_rs1 [4:0] $end
$var reg 5 P" final_rs2 [4:0] $end
$var reg 32 Q" imm32 [31:0] $end
$var reg 32 R" r_instr [31:0] $end
$upscope $end
$scope module EXMEM $end
$var wire 32 S" ALUresult [31:0] $end
$var wire 1 W PCSrc $end
$var wire 1 = Zero $end
$var wire 1 ! clk $end
$var wire 1 " rst $end
$var wire 5 T" rd_ID_EX [4:0] $end
$var wire 32 U" data2 [31:0] $end
$var wire 2 V" ResultSrc [1:0] $end
$var wire 1 E RegWrite $end
$var wire 32 W" PC_next_ID [31:0] $end
$var wire 32 X" PC_ALU_Sum [31:0] $end
$var wire 32 Y" PC [31:0] $end
$var wire 2 Z" Mem_Con [1:0] $end
$var wire 1 s Branch $end
$var reg 32 [" ALUresult_EX [31:0] $end
$var reg 1 t Branch_EX $end
$var reg 2 \" Mem_Con_EX [1:0] $end
$var reg 1 V PCSrc_EX $end
$var reg 32 ]" PC_ALU_Sum_EX [31:0] $end
$var reg 32 ^" PC_EX [31:0] $end
$var reg 32 _" PC_next_EX [31:0] $end
$var reg 1 F RegWrite_EX $end
$var reg 2 `" ResultSrc_EX [1:0] $end
$var reg 1 < Zero_EX $end
$var reg 32 a" data2_EX [31:0] $end
$var reg 5 b" rd_ID_EX_EX [4:0] $end
$upscope $end
$scope module FB $end
$var wire 1 F EX_MEM_RegWrite $end
$var wire 5 c" EX_MEM_rd [4:0] $end
$var wire 5 d" MEM_WB_rd [4:0] $end
$var wire 1 D MEM_WB_RegWrite $end
$var wire 5 e" ID_EX_rs2 [4:0] $end
$var wire 5 f" ID_EX_rs1 [4:0] $end
$var wire 2 g" ForwardB [1:0] $end
$var wire 2 h" ForwardA [1:0] $end
$upscope $end
$scope module ForwA_mux $end
$var wire 32 i" C [31:0] $end
$var wire 2 j" sel [1:0] $end
$var wire 32 k" Out [31:0] $end
$var wire 32 l" B [31:0] $end
$var wire 32 m" A [31:0] $end
$upscope $end
$scope module ForwB_mux $end
$var wire 32 n" C [31:0] $end
$var wire 2 o" sel [1:0] $end
$var wire 32 p" Out [31:0] $end
$var wire 32 q" B [31:0] $end
$var wire 32 r" A [31:0] $end
$upscope $end
$scope module Haz_Det $end
$var wire 1 s" Branch $end
$var wire 1 t" ID_EX_MemRead $end
$var wire 5 u" IF_ID_rs1 [4:0] $end
$var wire 5 v" IF_ID_rs2 [4:0] $end
$var wire 1 d JumpReg $end
$var wire 1 c Jump $end
$var wire 5 w" ID_EX_rd [4:0] $end
$var reg 1 q Flush $end
$var reg 1 n IF_ID_WriteEN $end
$var reg 1 Z NOP $end
$var reg 1 U PCWriteEN $end
$upscope $end
$scope module IDEX $end
$var wire 5 x" ALUControlHZ [4:0] $end
$var wire 1 } ALUSrc $end
$var wire 1 x B_Zero $end
$var wire 1 u BranchHZ $end
$var wire 1 q Flush $end
$var wire 3 y" ImmTypeHZ [2:0] $end
$var wire 1 g JumpHZ $end
$var wire 1 e JumpRegHZ $end
$var wire 2 z" Mem_Con [1:0] $end
$var wire 1 G RegWrite $end
$var wire 2 {" ResultSrcHZ [1:0] $end
$var wire 1 ! clk $end
$var wire 32 |" data1 [31:0] $end
$var wire 32 }" data2 [31:0] $end
$var wire 32 ~" instruction [31:0] $end
$var wire 2 !# isPC_select [1:0] $end
$var wire 5 "# rd [4:0] $end
$var wire 5 ## rs1 [4:0] $end
$var wire 5 $# rs2 [4:0] $end
$var wire 1 " rst $end
$var wire 32 %# PC_next_IF [31:0] $end
$var wire 32 &# PC [31:0] $end
$var wire 32 '# ImmExt [31:0] $end
$var reg 5 (# ALUControl_ID [4:0] $end
$var reg 1 | ALUSrc_ID $end
$var reg 1 w B_Zero_ID $end
$var reg 1 s Branch_ID $end
$var reg 32 )# ImmExt_ID [31:0] $end
$var reg 3 *# ImmType_ID [2:0] $end
$var reg 1 d JumpReg_ID $end
$var reg 1 c Jump_ID $end
$var reg 2 +# Mem_Con_ID [1:0] $end
$var reg 32 ,# PC_ID [31:0] $end
$var reg 32 -# PC_next_ID [31:0] $end
$var reg 1 E RegWrite_ID $end
$var reg 2 .# ResultSrc_ID [1:0] $end
$var reg 32 /# data1_ID [31:0] $end
$var reg 32 0# data2_ID [31:0] $end
$var reg 32 1# instruction_ID [31:0] $end
$var reg 2 2# isPC_select_ID [1:0] $end
$var reg 5 3# rd_ID [4:0] $end
$var reg 5 4# rs1_ID [4:0] $end
$var reg 5 5# rs2_ID [4:0] $end
$upscope $end
$scope module IFID $end
$var wire 1 q Flush $end
$var wire 1 n IF_ID_WriteEN $end
$var wire 1 ! clk $end
$var wire 1 " rst $end
$var wire 32 6# instruction [31:0] $end
$var wire 32 7# PC_next [31:0] $end
$var wire 32 8# PC [31:0] $end
$var reg 32 9# PC_IF [31:0] $end
$var reg 32 :# PC_next_IF [31:0] $end
$var reg 32 ;# instruction_IF [31:0] $end
$upscope $end
$scope module Imm0 $end
$var wire 3 <# ImmType [2:0] $end
$var wire 32 =# instruction [31:0] $end
$var wire 20 ># u_imm [19:0] $end
$var wire 12 ?# s_imm [11:0] $end
$var wire 20 @# j_imm [19:0] $end
$var wire 12 A# i_imm [11:0] $end
$var wire 13 B# b_imm [12:0] $end
$var reg 32 C# ImmExt [31:0] $end
$upscope $end
$scope module Inst_Mem $end
$var wire 1 " rst $end
$var wire 32 D# instruction [31:0] $end
$var wire 32 E# PC [31:0] $end
$upscope $end
$scope module MEMWB $end
$var wire 32 F# ALUresult [31:0] $end
$var wire 32 G# MemReadData [31:0] $end
$var wire 32 H# PC [31:0] $end
$var wire 32 I# PC_next_EX [31:0] $end
$var wire 1 F RegWrite $end
$var wire 2 J# ResultSrc [1:0] $end
$var wire 1 ! clk $end
$var wire 5 K# rd_EXMEM [4:0] $end
$var wire 1 " rst $end
$var reg 32 L# ALUresult_MEM [31:0] $end
$var reg 32 M# MemReadData_MEM [31:0] $end
$var reg 32 N# PC_MEM [31:0] $end
$var reg 32 O# PC_next_MEM [31:0] $end
$var reg 1 D RegWrite_MEM $end
$var reg 2 P# ResultSrc_MEM [1:0] $end
$var reg 5 Q# rd_EXMEM_MEM [4:0] $end
$upscope $end
$scope module MUX_PC_Data $end
$var wire 32 R# A [31:0] $end
$var wire 32 S# B [31:0] $end
$var wire 32 T# C [31:0] $end
$var wire 32 U# D [31:0] $end
$var wire 2 V# sel [1:0] $end
$var wire 32 W# Result [31:0] $end
$upscope $end
$scope module MultiPC $end
$var wire 1 W sel $end
$var wire 32 X# Out [31:0] $end
$var wire 32 Y# B [31:0] $end
$var wire 32 Z# A [31:0] $end
$upscope $end
$scope module Multiplex_ALU $end
$var wire 32 [# A [31:0] $end
$var wire 32 \# B [31:0] $end
$var wire 1 | sel $end
$var wire 32 ]# Out [31:0] $end
$upscope $end
$scope module Multiplex_jump_branch $end
$var wire 32 ^# B [31:0] $end
$var wire 1 d sel $end
$var wire 32 _# Out [31:0] $end
$var wire 32 `# A [31:0] $end
$upscope $end
$scope module PC0 $end
$var wire 1 U PCWrite $end
$var wire 32 a# PC_next [31:0] $end
$var wire 1 ! clk $end
$var wire 1 " rst $end
$var reg 32 b# PC [31:0] $end
$upscope $end
$scope module PC_ALU_Adder0 $end
$var wire 32 c# A [31:0] $end
$var wire 32 d# B [31:0] $end
$var wire 32 e# Sum [31:0] $end
$upscope $end
$scope module PCplus4 $end
$var wire 32 f# PC [31:0] $end
$var wire 1 " rst $end
$var wire 32 g# PCPlus4 [31:0] $end
$upscope $end
$scope module Register $end
$var wire 1 D RegWrite $end
$var wire 1 ! clk $end
$var wire 5 h# rs1 [4:0] $end
$var wire 5 i# rs2 [4:0] $end
$var wire 1 " rst $end
$var wire 5 j# w_add [4:0] $end
$var wire 32 k# data2 [31:0] $end
$var wire 32 l# data1 [31:0] $end
$var wire 32 m# RegWriteData [31:0] $end
$upscope $end
$scope module compressed_mupltiplex $end
$var wire 32 n# A [31:0] $end
$var wire 32 o# B [31:0] $end
$var wire 1 . sel $end
$var wire 32 p# Out [31:0] $end
$upscope $end
$scope module multipplex_result0 $end
$var wire 32 q# A [31:0] $end
$var wire 32 r# B [31:0] $end
$var wire 32 s# C [31:0] $end
$var wire 32 t# D [31:0] $end
$var wire 2 u# sel [1:0] $end
$var wire 32 v# Result [31:0] $end
$upscope $end
$upscope $end
$upscope $end
$enddefinitions $end
#0
$dumpvars
b0 v#
b0 u#
b0 t#
b0 s#
b0 r#
b0 q#
b10000010000010011 p#
b10000010000010011 o#
b0 n#
b0 m#
b0 l#
b0 k#
b0 j#
b0 i#
b0 h#
b0 g#
b0 f#
b0 e#
b0 d#
b0 c#
b0 b#
b0 a#
b0 `#
b0 _#
b0 ^#
b0 ]#
b0 \#
b0 [#
b0 Z#
b0 Y#
b0 X#
b0 W#
b0 V#
b0 U#
b0 T#
b0 S#
b0 R#
b0 Q#
b0 P#
b0 O#
b0 N#
b0 M#
b0 L#
b0 K#
b0 J#
b0 I#
b0 H#
b0 G#
b0 F#
b0 E#
b0 D#
b0 C#
b0 B#
b0 A#
b0 @#
b0 ?#
b0 >#
b0 =#
b0 <#
b0 ;#
b0 :#
b0 9#
b0 8#
b0 7#
b10000010000010011 6#
b0 5#
b0 4#
b0 3#
b0 2#
b0 1#
b0 0#
b0 /#
b0 .#
b0 -#
b0 ,#
b0 +#
b0 *#
b0 )#
b0 (#
b0 '#
b0 &#
b0 %#
b0 $#
b0 ##
b0 "#
b0 !#
b0 ~"
b0 }"
b0 |"
b0 {"
b0 z"
b0 y"
b0 x"
b0 w"
b0 v"
b0 u"
0t"
0s"
b0 r"
b0 q"
b0 p"
b0 o"
b0 n"
b0 m"
b0 l"
b0 k"
b0 j"
b0 i"
b0 h"
b0 g"
b0 f"
b0 e"
b0 d"
b0 c"
b0 b"
b0 a"
b0 `"
b0 _"
b0 ^"
b0 ]"
b0 \"
b0 ["
b0 Z"
b0 Y"
b0 X"
b0 W"
b0 V"
b0 U"
b0 T"
b0 S"
b10000010000010011 R"
b0 Q"
b0 P"
b10 O"
b1000 N"
b10011 M"
b0 L"
b0 K"
b0 J"
b0 I"
b0 H"
b1000 G"
b0 F"
b1000 E"
b0 D"
b1000 C"
b0 B"
b0 A"
b0 @"
b0 ?"
b0 >"
0="
0<"
b0 ;"
b0 :"
b0 9"
b0 8"
b0 7"
b0 6"
b0 5"
b0 4"
b0 3"
b0 2"
b0 1"
b0 0"
b0 /"
b0 ."
b0 -"
b0 ,"
b0 +"
0*"
b0 )"
b0 ("
b0 '"
b0 &"
b0 %"
b0 $"
b0 #"
b0 ""
b0 !"
0~
0}
0|
b0 {
b0 z
b0 y
0x
0w
0v
0u
0t
0s
0r
0q
b0 p
b0 o
1n
b0 m
b0 l
b0 k
b0 j
b0 i
0h
0g
0f
0e
0d
0c
0b
b0 a
b0 `
0_
0^
0]
b0 \
b0 [
0Z
b0 Y
b0 X
0W
0V
1U
b0 T
b0 S
b0 R
b0 Q
b0 P
b0 O
b0 N
b0 M
b0 L
b0 K
b0 J
b0 I
0H
0G
0F
0E
0D
b0 C
b0 B
b0 A
b0 @
b0 ?
b0 >
1=
0<
b10000010000010011 ;
b0 :
b0 9
b0 8
b0 7
b0 6
b0 5
b0 4
b10000010000010011 3
b0 2
b0 1
b0 0
b0 /
1.
b0 -
b0 ,
b0 +
b0 *
b0 )
b0 (
b0 '
b0 &
b0 %
b0 $
z#
0"
1!
$end
#2
b1000100010111 3
b1000100010111 6#
b1000100010111 p#
0.
b0 ;
b0 R"
b0 o#
b0 M"
b0 N"
b0 O"
b11 I"
b10 H"
b10 F"
b101 D"
b1101 G"
b1010 E"
b1101 C"
b11 A"
b1000100010111 B"
b100 M
b100 7#
b100 X#
b100 a#
b1000100010111 4
b1000100010111 D#
b1000100010111 n#
b100 X
b100 Z#
b100 g#
1"
#5
0!
#10
b11 j
b11 :"
b11 y"
1u
1}
1G
b100 D"
b1100 G"
b1100 C"
b10000000100010011 3
b10000000100010011 6#
b10000000100010011 p#
b100010011 B"
b1000000000000 m
b1000000000000 '#
b1000000000000 C#
b111 ."
b111 5"
b1 0
b1 2"
b1 !#
1v
b11 k
b11 0"
b11 7"
b11 <#
1~
1H
b1000 M
b1000 7#
b1000 X#
b1000 a#
b10000000100010011 4
b10000000100010011 D#
b10000000100010011 n#
b10 ?#
b10 B#
b1 >#
b100000000000 @#
b10 "#
b1 +"
b1 3"
b10111 -"
b1000 X
b1000 Z#
b1000 g#
1<
b100 J
b100 %#
b100 :#
b1000100010111 ~"
b1000100010111 1
b1000100010111 ;#
b1000100010111 =#
b100 Y
b100 8#
b100 E#
b100 b#
b100 f#
1!
#15
0!
#20
0q
b1 H"
b1 F"
b11011 D"
b1011 G"
b1001 E"
b1011 C"
b0 j
b0 :"
b0 y"
0u
0W
b100000000000000011101111 3
b100000000000000011101111 6#
b100000000000000011101111 p#
b11101111 B"
bx :
bx |"
b1100 M
b1100 7#
b1100 X#
b1100 a#
b100000000000000011101111 4
b100000000000000011101111 D#
b100000000000000011101111 n#
b0 m
b0 '#
b0 C#
bx '
bx l#
b0 ."
b0 5"
b0 0
b0 2"
b0 !#
0v
b0 k
b0 0"
b0 7"
b0 <#
0=
b1000000000000 {
b1000000000000 )"
b1000000000000 S"
b1000000000000 ^#
b1100 X
b1100 Z#
b1100 g#
b10000 >#
b1000000000000000 @#
b10 u"
b10 ##
b10 h#
b0 +"
b0 3"
b10011 -"
0s"
b1000000000000 ,
b1000000000000 %"
b1000000000000 ]#
b1000000000000 T
b1000000000000 X"
b1000000000000 Y#
b1000000000000 _#
b1000 Y
b1000 8#
b1000 E#
b1000 b#
b1000 f#
b1000 J
b1000 %#
b1000 :#
b100 O
b100 &#
b100 9#
b10000000100010011 ~"
b10000000100010011 1
b10000000100010011 ;#
b10000000100010011 =#
b100 K
b100 W"
b100 -#
b1 /
b1 2#
b1 V#
1s
b11 i
b11 *#
b10 )
b10 T"
b10 w"
b10 3#
1|
1E
b1000000000000 R
b1000000000000 `#
b1000000000000 e#
b1000000000000 l
b1000000000000 )#
b1000000000000 \#
b1000000000000 d#
b1000100010111 2
b1000100010111 1#
1!
#25
0!
#30
b100 j
b100 :"
b100 y"
1g
b10 A
b10 9"
b10 {"
0}
b0 H"
b0 F"
b1000 E"
b10 p
b10 h"
b10 j"
bx 7
bx }"
b0 :
b0 |"
b1101111 3
b1101111 6#
b1101111 p#
b1101111 B"
0r
0*"
0=
b1000000000000 {
b1000000000000 )"
b1000000000000 S"
b1000000000000 ^#
b1000 m
b1000 '#
b1000 C#
bx &
bx k#
b0 '
b0 l#
0~
b100 k
b100 0"
b100 7"
b100 <#
b10 B
b10 1"
b10 8"
1h
b10000 M
b10000 7#
b10000 X#
b10000 a#
b1101111 4
b1101111 D#
b1101111 n#
b0 '"
b1000000000000 -
b1000000000000 &"
b1000000000000 W#
b1000000000000 8
b1000000000000 k"
b1000000000000 R#
b0 ,
b0 %"
b0 ]#
b100 T
b100 X"
b100 Y#
b100 _#
b1000 A#
b1 ?#
b100000000000 B#
b100000000000 >#
b100 @#
b1000 v"
b0 u"
b1 "#
b1000 $#
b0 ##
b1000 i#
b0 h#
b1101111 -"
b10000 X
b10000 Z#
b10000 g#
b100 L
b100 _"
b100 I#
1F
1t
b1000000000000 S
b1000000000000 ]"
0<
b1000000000000 z
b1000000000000 @"
b1000000000000 ["
b1000000000000 i"
b1000000000000 n"
b1000000000000 F#
b10 (
b10 b"
b10 c"
b10 K#
b1000 K
b1000 W"
b1000 -#
b0 /
b0 2#
b0 V#
0s
b0 i
b0 *#
b10 %
b10 f"
b10 4#
b100 P
b100 Y"
b100 ,#
b100 S#
b100 c#
bx 9
bx m"
bx /#
b100 R
b100 `#
b100 e#
b0 l
b0 )#
b0 \#
b0 d#
b10000000100010011 2
b10000000100010011 1#
b1100 J
b1100 %#
b1100 :#
b1000 O
b1000 &#
b1000 9#
b100000000000000011101111 ~"
b100000000000000011101111 1
b100000000000000011101111 ;#
b100000000000000011101111 =#
b1100 Y
b1100 8#
b1100 E#
b1100 b#
b1100 f#
1!
#35
0!
#40
1q
b100 J"
b1110 H"
b1110 F"
b1101 D"
b1101 G"
b1110 E"
b1101 C"
b0 -
b0 &"
b0 W#
b11000011100110111 3
b11000011100110111 6#
b11000011100110111 p#
b1000011100110111 B"
b0 7
b0 }"
1W
b0 8
b0 k"
b0 R#
bx $"
xr
x*"
x=
bx {
bx )"
bx S"
bx ^#
b10000 M
b10000 7#
b10000 X#
b10000 a#
b11000011100110111 4
b11000011100110111 D#
b11000011100110111 n#
b0 m
b0 '#
b0 C#
b0 &
b0 k#
b0 p
b0 h"
b0 j"
bx '"
bx ,
bx %"
bx ]#
b10100 X
b10100 Z#
b10100 g#
b0 A#
b0 ?#
b0 B#
b0 >#
b0 @#
b0 v"
b0 "#
b0 $#
b0 i#
bx +
bx U"
bx p"
bx [#
b10000 T
b10000 X"
b10000 Y#
b10000 _#
b1000000000000 C
b1000000000000 l"
b1000000000000 q"
b1000000000000 m#
b1000000000000 v#
b10000 Y
b10000 8#
b10000 E#
b10000 b#
b10000 f#
b10000 J
b10000 %#
b10000 :#
b1100 O
b1100 &#
b1100 9#
b1101111 ~"
b1101111 1
b1101111 ;#
b1101111 =#
b1100 K
b1100 W"
b1100 -#
b10 ?
b10 V"
b10 .#
1c
b100 i
b100 *#
b1 )
b1 T"
b1 w"
b1 3#
0|
b0 %
b0 f"
b0 4#
b1000 $
b1000 e"
b1000 5#
b1000 P
b1000 Y"
b1000 ,#
b1000 S#
b1000 c#
b0 9
b0 m"
b0 /#
bx 5
bx r"
bx 0#
b10000 R
b10000 `#
b10000 e#
b1000 l
b1000 )#
b1000 \#
b1000 d#
b100000000000000011101111 2
b100000000000000011101111 1#
b1000 L
b1000 _"
b1000 I#
b100 Q
b100 ^"
b100 H#
0t
b100 S
b100 ]"
b100 I
b100 O#
b100 s#
1D
b1000000000000 y
b1000000000000 L#
b1000000000000 q#
b10 *
b10 d"
b10 Q#
b10 j#
1!
#45
0!
#50
0q
0g
0G
0W
b0 $"
0r
0*"
1=
b0 {
b0 )"
b0 S"
b0 ^#
b0 '"
b0 ,
b0 %"
b0 ]#
b10100 M
b10100 7#
b10100 X#
b10100 a#
0h
0H
b0 +
b0 U"
b0 p"
b0 [#
b0 T
b0 X"
b0 Y#
b0 _#
b0 -"
b1000 I
b1000 O#
b1000 s#
b100 N
b100 N#
b1100 L
b1100 _"
b1100 I#
b1000 Q
b1000 ^"
b1000 H#
b10 @
b10 `"
b10 J#
1V
b10000 S
b10000 ]"
x<
bx z
bx @"
bx ["
bx i"
bx n"
bx F#
bx 6
bx >"
bx a"
b1 (
b1 b"
b1 c"
b1 K#
b0 K
b0 W"
b0 -#
b0 ?
b0 V"
b0 .#
0c
b0 i
b0 *#
b0 )
b0 T"
b0 w"
b0 3#
b0 $
b0 e"
b0 5#
0E
b0 P
b0 Y"
b0 ,#
b0 S#
b0 c#
b0 5
b0 r"
b0 0#
b0 R
b0 `#
b0 e#
b0 l
b0 )#
b0 \#
b0 d#
b0 2
b0 1#
b0 J
b0 %#
b0 :#
b0 O
b0 &#
b0 9#
b0 ~"
b0 1
b0 ;#
b0 =#
1!
#55
0!
#60
b0 J"
b10 H"
b10 F"
b100 D"
b1100 G"
b1010 E"
b1100 C"
b11 j
b11 :"
b11 y"
b0 A
b0 9"
b0 {"
1}
1G
b11111111000000010000000100010011 3
b11111111000000010000000100010011 6#
b11111111000000010000000100010011 p#
b100010011 B"
bx :
bx |"
b11000 M
b11000 7#
b11000 X#
b11000 a#
b11111111000000010000000100010011 4
b11111111000000010000000100010011 D#
b11111111000000010000000100010011 n#
b11000000000000000 m
b11000000000000000 '#
b11000000000000000 C#
bx '
bx l#
b10 0
b10 2"
b10 !#
b11 k
b11 0"
b11 7"
b11 <#
b0 B
b0 1"
b0 8"
1~
1H
b0 p
b0 h"
b0 j"
b0 o
b0 g"
b0 o"
b11000 X
b11000 Z#
b11000 g#
b1110 ?#
b1110 B#
b11000 >#
b1100000000000000 @#
b11 u"
b1110 "#
b11 ##
b11 h#
b110111 -"
b1100 C
b1100 l"
b1100 q"
b1100 m#
b1100 v#
b10100 Y
b10100 8#
b10100 E#
b10100 b#
b10100 f#
b10100 J
b10100 %#
b10100 :#
b10000 O
b10000 &#
b10000 9#
b11000011100110111 ~"
b11000011100110111 1
b11000011100110111 ;#
b11000011100110111 =#
b10 ?
b10 V"
b10 .#
b100 i
b100 *#
b0 L
b0 _"
b0 I#
b0 Q
b0 ^"
b0 H#
b0 @
b0 `"
b0 J#
0V
0F
b0 S
b0 ]"
1<
b0 z
b0 @"
b0 ["
b0 i"
b0 n"
b0 F#
b0 6
b0 >"
b0 a"
b0 (
b0 b"
b0 c"
b0 K#
b1100 I
b1100 O#
b1100 s#
b1000 N
b1000 N#
b10 >
b10 P#
b10 u#
bx y
bx L#
bx q#
b1 *
b1 d"
b1 Q#
b1 j#
1!
#65
0!
