rtl_files/RISC_V.vcd
$date
	Sun Oct 12 14:18:18 2025
$end
$version
	Icarus Verilog
$end
$timescale
	1s
$end
$scope module Testbench $end
$var reg 1 ! clk $end
$var reg 1 " rst $end
$scope module uut $end
$var wire 1 ! clk $end
$var wire 1 " rst $end
$var wire 5 # rs2_ID [4:0] $end
$var wire 5 $ rs1_ID [4:0] $end
$var wire 32 % rf_data2 [31:0] $end
$var wire 32 & rf_data1 [31:0] $end
$var wire 5 ' rd_ID_EX_EX [4:0] $end
$var wire 5 ( rd_ID [4:0] $end
$var wire 5 ) rd_EXMEM_MEM [4:0] $end
$var wire 32 * rdB_ForwB [31:0] $end
$var wire 32 + rdB [31:0] $end
$var wire 32 , rdA [31:0] $end
$var wire 1 - is_compressed $end
$var wire 2 . isPC_select_ID [1:0] $end
$var wire 2 / isPC_select [1:0] $end
$var wire 32 0 instruction_IF [31:0] $end
$var wire 32 1 instruction_ID [31:0] $end
$var wire 32 2 instruction [31:0] $end
$var wire 32 3 initial_instr [31:0] $end
$var wire 32 4 data2_ID [31:0] $end
$var wire 32 5 data2_EX [31:0] $end
$var wire 32 6 data2 [31:0] $end
$var wire 32 7 data1_ID_ForwA [31:0] $end
$var wire 32 8 data1_ID [31:0] $end
$var wire 32 9 data1 [31:0] $end
$var wire 32 : compress_instr [31:0] $end
$var wire 1 ; Zero_EX $end
$var wire 1 < Zero $end
$var wire 2 = ResultSrc_MEM [1:0] $end
$var wire 2 > ResultSrc_ID [1:0] $end
$var wire 2 ? ResultSrc_EX [1:0] $end
$var wire 2 @ ResultSrcHZ [1:0] $end
$var wire 2 A ResultSrc [1:0] $end
$var wire 32 B Result [31:0] $end
$var wire 1 C RegWrite_MEM $end
$var wire 1 D RegWrite_ID $end
$var wire 1 E RegWrite_EX $end
$var wire 1 F RegWriteHZ $end
$var wire 1 G RegWrite $end
$var wire 32 H PC_next_MEM [31:0] $end
$var wire 32 I PC_next_IF [31:0] $end
$var wire 32 J PC_next_ID [31:0] $end
$var wire 32 K PC_next_EX [31:0] $end
$var wire 32 L PC_next [31:0] $end
$var wire 32 M PC_MEM [31:0] $end
$var wire 32 N PC_IF [31:0] $end
$var wire 32 O PC_ID [31:0] $end
$var wire 32 P PC_EX [31:0] $end
$var wire 32 Q PC_Branch [31:0] $end
$var wire 32 R PC_ALU_Sum_EX [31:0] $end
$var wire 32 S PC_ALU_Sum [31:0] $end
$var wire 1 T PCWriteEN $end
$var wire 1 U PCSrc_EX $end
$var wire 1 V PCSrc $end
$var wire 32 W PCPlus4 [31:0] $end
$var wire 32 X PC [31:0] $end
$var wire 1 Y NOP $end
$var wire 2 Z Mem_Con_ID [1:0] $end
$var wire 2 [ Mem_Con_EX [1:0] $end
$var wire 1 \ MemWriteHZ $end
$var wire 1 ] MemWrite $end
$var wire 1 ^ MemReadHZ $end
$var wire 32 _ MemReadData_MEM [31:0] $end
$var wire 32 ` MemReadData [31:0] $end
$var wire 1 a MemRead $end
$var wire 1 b Jump_ID $end
$var wire 1 c JumpReg_ID $end
$var wire 1 d JumpRegHZ $end
$var wire 1 e JumpReg $end
$var wire 1 f JumpHZ $end
$var wire 1 g Jump $end
$var wire 3 h ImmType_ID [2:0] $end
$var wire 3 i ImmTypeHZ [2:0] $end
$var wire 3 j ImmType [2:0] $end
$var wire 32 k ImmExt_ID [31:0] $end
$var wire 32 l ImmExt [31:0] $end
$var wire 1 m IF_ID_WriteEN $end
$var wire 2 n ForwardB [1:0] $end
$var wire 2 o ForwardA [1:0] $end
$var wire 1 p Flush $end
$var wire 1 q Carry $end
$var wire 1 r Branch_ID $end
$var wire 1 s Branch_EX $end
$var wire 1 t BranchHZ $end
$var wire 1 u Branch $end
$var wire 1 v B_Zero_ID $end
$var wire 1 w B_Zero $end
$var wire 32 x ALUresult_MEM [31:0] $end
$var wire 32 y ALUresult_EX [31:0] $end
$var wire 32 z ALUresult [31:0] $end
$var wire 1 { ALUSrc_ID $end
$var wire 1 | ALUSrcHZ $end
$var wire 1 } ALUSrc $end
$var wire 5 ~ ALUControl_ID [4:0] $end
$var wire 5 !" ALUControlHZ [4:0] $end
$var wire 5 "" ALUControl [4:0] $end
$scope module ALU $end
$var wire 1 q Carry $end
$var wire 5 #" shamt [4:0] $end
$var wire 32 $" rdB [31:0] $end
$var wire 32 %" rdA [31:0] $end
$var wire 64 &" mul_result [63:0] $end
$var wire 1 < Zero $end
$var wire 5 '" ALUControl [4:0] $end
$var reg 32 (" ALUresult [31:0] $end
$var reg 1 )" Cout $end
$upscope $end
$scope module Control_Unit $end
$var wire 3 *" funct3 [2:0] $end
$var wire 7 +" funct7 [6:0] $end
$var wire 7 ," opcode [6:0] $end
$var wire 1 " rst $end
$var wire 5 -" r_type_ALUControl [4:0] $end
$var reg 5 ." ALUControl [4:0] $end
$var reg 1 } ALUSrc $end
$var reg 1 w B_Zero $end
$var reg 1 u Branch $end
$var reg 3 /" ImmType [2:0] $end
$var reg 1 g Jump $end
$var reg 1 e JumpReg $end
$var reg 1 a MemRead $end
$var reg 1 ] MemWrite $end
$var reg 1 G RegWrite $end
$var reg 2 0" ResultSrc [1:0] $end
$var reg 2 1" isPC_select [1:0] $end
$scope module r_type_alu_ctrl_inst $end
$var wire 3 2" funct3 [2:0] $end
$var wire 7 3" funct7 [6:0] $end
$var reg 5 4" ALUControl [4:0] $end
$upscope $end
$upscope $end
$scope module Ctrl_Mux $end
$var wire 5 5" ALUControl [4:0] $end
$var wire 1 } ALUSrc $end
$var wire 1 u Branch $end
$var wire 3 6" ImmType [2:0] $end
$var wire 1 g Jump $end
$var wire 1 e JumpReg $end
$var wire 1 a MemRead $end
$var wire 1 ] MemWrite $end
$var wire 1 G RegWrite $end
$var wire 2 7" ResultSrc [1:0] $end
$var wire 1 Y sel $end
$var wire 2 8" ResultSrcHZ [1:0] $end
$var wire 1 F RegWriteHZ $end
$var wire 1 \ MemWriteHZ $end
$var wire 1 ^ MemReadHZ $end
$var wire 1 d JumpRegHZ $end
$var wire 1 f JumpHZ $end
$var wire 3 9" ImmTypeHZ [2:0] $end
$var wire 1 t BranchHZ $end
$var wire 1 | ALUSrcHZ $end
$var wire 5 :" ALUControlHZ [4:0] $end
$upscope $end
$scope module Data_Memory $end
$var wire 1 ;" MemRead $end
$var wire 1 <" MemWrite $end
$var wire 1 ! clk $end
$var wire 32 =" MemWriteData [31:0] $end
$var wire 32 >" MemReadData [31:0] $end
$var wire 32 ?" ALUresult [31:0] $end
$upscope $end
$scope module Decomp_Mux $end
$var wire 2 @" instr [1:0] $end
$var wire 1 - is_compressed $end
$upscope $end
$scope module Decompressor $end
$var wire 16 A" c_instr [15:0] $end
$var wire 5 B" rs2_prime [4:0] $end
$var wire 5 C" rs2 [4:0] $end
$var wire 5 D" rs1_prime [4:0] $end
$var wire 5 E" rs1 [4:0] $end
$var wire 5 F" rd_prime [4:0] $end
$var wire 5 G" rd [4:0] $end
$var wire 2 H" op [1:0] $end
$var wire 3 I" funct3 [2:0] $end
$var parameter 7 J" OPCODE_AUIPC $end
$var parameter 7 K" OPCODE_BRANCH $end
$var parameter 7 L" OPCODE_JAL $end
$var parameter 7 M" OPCODE_JALR $end
$var parameter 7 N" OPCODE_LOAD $end
$var parameter 7 O" OPCODE_LUI $end
$var parameter 7 P" OPCODE_OP $end
$var parameter 7 Q" OPCODE_OP_IMM $end
$var parameter 7 R" OPCODE_STORE $end
$var reg 3 S" final_funct3 [2:0] $end
$var reg 7 T" final_funct7 [6:0] $end
$var reg 7 U" final_opcode [6:0] $end
$var reg 5 V" final_rd [4:0] $end
$var reg 5 W" final_rs1 [4:0] $end
$var reg 5 X" final_rs2 [4:0] $end
$var reg 32 Y" imm32 [31:0] $end
$var reg 32 Z" r_instr [31:0] $end
$upscope $end
$scope module EXMEM $end
$var wire 32 [" ALUresult [31:0] $end
$var wire 1 V PCSrc $end
$var wire 1 < Zero $end
$var wire 1 ! clk $end
$var wire 1 " rst $end
$var wire 5 \" rd_ID_EX [4:0] $end
$var wire 32 ]" data2 [31:0] $end
$var wire 2 ^" ResultSrc [1:0] $end
$var wire 1 D RegWrite $end
$var wire 32 _" PC_next_ID [31:0] $end
$var wire 32 `" PC_ALU_Sum [31:0] $end
$var wire 32 a" PC [31:0] $end
$var wire 2 b" Mem_Con [1:0] $end
$var wire 1 r Branch $end
$var reg 32 c" ALUresult_EX [31:0] $end
$var reg 1 s Branch_EX $end
$var reg 2 d" Mem_Con_EX [1:0] $end
$var reg 1 U PCSrc_EX $end
$var reg 32 e" PC_ALU_Sum_EX [31:0] $end
$var reg 32 f" PC_EX [31:0] $end
$var reg 32 g" PC_next_EX [31:0] $end
$var reg 1 E RegWrite_EX $end
$var reg 2 h" ResultSrc_EX [1:0] $end
$var reg 1 ; Zero_EX $end
$var reg 32 i" data2_EX [31:0] $end
$var reg 5 j" rd_ID_EX_EX [4:0] $end
$upscope $end
$scope module FB $end
$var wire 1 E EX_MEM_RegWrite $end
$var wire 5 k" EX_MEM_rd [4:0] $end
$var wire 5 l" MEM_WB_rd [4:0] $end
$var wire 1 C MEM_WB_RegWrite $end
$var wire 5 m" ID_EX_rs2 [4:0] $end
$var wire 5 n" ID_EX_rs1 [4:0] $end
$var wire 2 o" ForwardB [1:0] $end
$var wire 2 p" ForwardA [1:0] $end
$upscope $end
$scope module ForwA_mux $end
$var wire 32 q" C [31:0] $end
$var wire 2 r" sel [1:0] $end
$var wire 32 s" Out [31:0] $end
$var wire 32 t" B [31:0] $end
$var wire 32 u" A [31:0] $end
$upscope $end
$scope module ForwB_mux $end
$var wire 32 v" C [31:0] $end
$var wire 2 w" sel [1:0] $end
$var wire 32 x" Out [31:0] $end
$var wire 32 y" B [31:0] $end
$var wire 32 z" A [31:0] $end
$upscope $end
$scope module Haz_Det $end
$var wire 1 {" Branch $end
$var wire 1 |" ID_EX_MemRead $end
$var wire 5 }" IF_ID_rs1 [4:0] $end
$var wire 5 ~" IF_ID_rs2 [4:0] $end
$var wire 1 c JumpReg $end
$var wire 1 b Jump $end
$var wire 5 !# ID_EX_rd [4:0] $end
$var reg 1 p Flush $end
$var reg 1 m IF_ID_WriteEN $end
$var reg 1 Y NOP $end
$var reg 1 T PCWriteEN $end
$upscope $end
$scope module IDEX $end
$var wire 5 "# ALUControlHZ [4:0] $end
$var wire 1 | ALUSrc $end
$var wire 1 w B_Zero $end
$var wire 1 t BranchHZ $end
$var wire 1 p Flush $end
$var wire 3 ## ImmTypeHZ [2:0] $end
$var wire 1 f JumpHZ $end
$var wire 1 d JumpRegHZ $end
$var wire 2 $# Mem_Con [1:0] $end
$var wire 1 F RegWrite $end
$var wire 2 %# ResultSrcHZ [1:0] $end
$var wire 1 ! clk $end
$var wire 32 &# data1 [31:0] $end
$var wire 32 '# data2 [31:0] $end
$var wire 32 (# instruction [31:0] $end
$var wire 2 )# isPC_select [1:0] $end
$var wire 5 *# rd [4:0] $end
$var wire 5 +# rs1 [4:0] $end
$var wire 5 ,# rs2 [4:0] $end
$var wire 1 " rst $end
$var wire 32 -# PC_next_IF [31:0] $end
$var wire 32 .# PC [31:0] $end
$var wire 32 /# ImmExt [31:0] $end
$var reg 5 0# ALUControl_ID [4:0] $end
$var reg 1 { ALUSrc_ID $end
$var reg 1 v B_Zero_ID $end
$var reg 1 r Branch_ID $end
$var reg 32 1# ImmExt_ID [31:0] $end
$var reg 3 2# ImmType_ID [2:0] $end
$var reg 1 c JumpReg_ID $end
$var reg 1 b Jump_ID $end
$var reg 2 3# Mem_Con_ID [1:0] $end
$var reg 32 4# PC_ID [31:0] $end
$var reg 32 5# PC_next_ID [31:0] $end
$var reg 1 D RegWrite_ID $end
$var reg 2 6# ResultSrc_ID [1:0] $end
$var reg 32 7# data1_ID [31:0] $end
$var reg 32 8# data2_ID [31:0] $end
$var reg 32 9# instruction_ID [31:0] $end
$var reg 2 :# isPC_select_ID [1:0] $end
$var reg 5 ;# rd_ID [4:0] $end
$var reg 5 <# rs1_ID [4:0] $end
$var reg 5 =# rs2_ID [4:0] $end
$upscope $end
$scope module IFID $end
$var wire 1 p Flush $end
$var wire 1 m IF_ID_WriteEN $end
$var wire 1 ! clk $end
$var wire 1 " rst $end
$var wire 32 ># instruction [31:0] $end
$var wire 32 ?# PC_next [31:0] $end
$var wire 32 @# PC [31:0] $end
$var reg 32 A# PC_IF [31:0] $end
$var reg 32 B# PC_next_IF [31:0] $end
$var reg 32 C# instruction_IF [31:0] $end
$upscope $end
$scope module Imm0 $end
$var wire 3 D# ImmType [2:0] $end
$var wire 32 E# instruction [31:0] $end
$var wire 20 F# u_imm [19:0] $end
$var wire 12 G# s_imm [11:0] $end
$var wire 20 H# j_imm [19:0] $end
$var wire 12 I# i_imm [11:0] $end
$var wire 13 J# b_imm [12:0] $end
$var reg 32 K# ImmExt [31:0] $end
$upscope $end
$scope module Inst_Mem $end
$var wire 1 " rst $end
$var wire 32 L# instruction [31:0] $end
$var wire 32 M# PC [31:0] $end
$upscope $end
$scope module MEMWB $end
$var wire 32 N# ALUresult [31:0] $end
$var wire 32 O# MemReadData [31:0] $end
$var wire 32 P# PC [31:0] $end
$var wire 32 Q# PC_next_EX [31:0] $end
$var wire 1 E RegWrite $end
$var wire 2 R# ResultSrc [1:0] $end
$var wire 1 ! clk $end
$var wire 5 S# rd_EXMEM [4:0] $end
$var wire 1 " rst $end
$var reg 32 T# ALUresult_MEM [31:0] $end
$var reg 32 U# MemReadData_MEM [31:0] $end
$var reg 32 V# PC_MEM [31:0] $end
$var reg 32 W# PC_next_MEM [31:0] $end
$var reg 1 C RegWrite_MEM $end
$var reg 2 X# ResultSrc_MEM [1:0] $end
$var reg 5 Y# rd_EXMEM_MEM [4:0] $end
$upscope $end
$scope module MUX_PC_Data $end
$var wire 32 Z# A [31:0] $end
$var wire 32 [# B [31:0] $end
$var wire 32 \# C [31:0] $end
$var wire 32 ]# D [31:0] $end
$var wire 2 ^# sel [1:0] $end
$var wire 32 _# Result [31:0] $end
$upscope $end
$scope module MultiPC $end
$var wire 1 V sel $end
$var wire 32 `# Out [31:0] $end
$var wire 32 a# B [31:0] $end
$var wire 32 b# A [31:0] $end
$upscope $end
$scope module Multiplex_ALU $end
$var wire 32 c# A [31:0] $end
$var wire 32 d# B [31:0] $end
$var wire 1 { sel $end
$var wire 32 e# Out [31:0] $end
$upscope $end
$scope module Multiplex_jump_branch $end
$var wire 32 f# B [31:0] $end
$var wire 1 c sel $end
$var wire 32 g# Out [31:0] $end
$var wire 32 h# A [31:0] $end
$upscope $end
$scope module PC0 $end
$var wire 1 T PCWrite $end
$var wire 32 i# PC_next [31:0] $end
$var wire 1 ! clk $end
$var wire 1 " rst $end
$var reg 32 j# PC [31:0] $end
$upscope $end
$scope module PC_ALU_Adder0 $end
$var wire 32 k# A [31:0] $end
$var wire 32 l# B [31:0] $end
$var wire 32 m# Sum [31:0] $end
$upscope $end
$scope module PCplus4 $end
$var wire 32 n# PC [31:0] $end
$var wire 1 " rst $end
$var wire 32 o# PCPlus4 [31:0] $end
$upscope $end
$scope module Register $end
$var wire 1 C RegWrite $end
$var wire 1 ! clk $end
$var wire 5 p# rs1 [4:0] $end
$var wire 5 q# rs2 [4:0] $end
$var wire 1 " rst $end
$var wire 5 r# w_add [4:0] $end
$var wire 32 s# data2 [31:0] $end
$var wire 32 t# data1 [31:0] $end
$var wire 32 u# RegWriteData [31:0] $end
$upscope $end
$scope module compressed_mupltiplex $end
$var wire 32 v# A [31:0] $end
$var wire 32 w# B [31:0] $end
$var wire 1 - sel $end
$var wire 32 x# Out [31:0] $end
$upscope $end
$scope module multipplex_result0 $end
$var wire 32 y# A [31:0] $end
$var wire 32 z# B [31:0] $end
$var wire 32 {# C [31:0] $end
$var wire 32 |# D [31:0] $end
$var wire 2 }# sel [1:0] $end
$var wire 32 ~# Result [31:0] $end
$upscope $end
$upscope $end
$upscope $end
$enddefinitions $end
$comment Show the parameter values. $end
$dumpall
b100011 R"
b10011 Q"
b110011 P"
b110111 O"
b11 N"
b1100111 M"
b1101111 L"
b1100011 K"
b10111 J"
$end
#0
$dumpvars
b0 ~#
b0 }#
b0 |#
b0 {#
b0 z#
b0 y#
b10000010000010011 x#
b10000010000010011 w#
b0 v#
b0 u#
b0 t#
b0 s#
b0 r#
b0 q#
b0 p#
b0 o#
b0 n#
b0 m#
b0 l#
b0 k#
b0 j#
b0 i#
b0 h#
b0 g#
b0 f#
b0 e#
b0 d#
b0 c#
b0 b#
b0 a#
b0 `#
b0 _#
b0 ^#
b0 ]#
b0 \#
b0 [#
b0 Z#
b0 Y#
b0 X#
b0 W#
b0 V#
b0 U#
b0 T#
b0 S#
b0 R#
b0 Q#
b0 P#
b0 O#
b0 N#
b0 M#
b0 L#
b0 K#
b0 J#
b0 I#
b0 H#
b0 G#
b0 F#
b0 E#
b0 D#
b0 C#
b0 B#
b0 A#
b0 @#
b0 ?#
b10000010000010011 >#
b0 =#
b0 <#
b0 ;#
b0 :#
b0 9#
b0 8#
b0 7#
b0 6#
b0 5#
b0 4#
b0 3#
b0 2#
b0 1#
b0 0#
b0 /#
b0 .#
b0 -#
b0 ,#
b0 +#
b0 *#
b0 )#
b0 (#
b0 '#
b0 &#
b0 %#
b0 $#
b0 ##
b0 "#
b0 !#
b0 ~"
b0 }"
0|"
0{"
b0 z"
b0 y"
b0 x"
b0 w"
b0 v"
b0 u"
b0 t"
b0 s"
b0 r"
b0 q"
b0 p"
b0 o"
b0 n"
b0 m"
b0 l"
b0 k"
b0 j"
b0 i"
b0 h"
b0 g"
b0 f"
b0 e"
b0 d"
b0 c"
b0 b"
b0 a"
b0 `"
b0 _"
b0 ^"
b0 ]"
b0 \"
b0 ["
b10000010000010011 Z"
b0 Y"
b0 X"
b10 W"
b1000 V"
b10011 U"
b0 T"
b0 S"
b0 I"
b0 H"
b0 G"
b1000 F"
b0 E"
b1000 D"
b0 C"
b1000 B"
b0 A"
b0 @"
b0 ?"
b0 >"
b0 ="
0<"
0;"
b0 :"
b0 9"
b0 8"
b0 7"
b0 6"
b0 5"
b0 4"
b0 3"
b0 2"
b0 1"
b0 0"
b0 /"
b0 ."
b0 -"
b0 ,"
b0 +"
b0 *"
0)"
b0 ("
b0 '"
b0 &"
b0 %"
b0 $"
b0 #"
b0 ""
b0 !"
b0 ~
0}
0|
0{
b0 z
b0 y
b0 x
0w
0v
0u
0t
0s
0r
0q
0p
b0 o
b0 n
1m
b0 l
b0 k
b0 j
b0 i
b0 h
0g
0f
0e
0d
0c
0b
0a
b0 `
b0 _
0^
0]
0\
b0 [
b0 Z
0Y
b0 X
b0 W
0V
0U
1T
b0 S
b0 R
b0 Q
b0 P
b0 O
b0 N
b0 M
b0 L
b0 K
b0 J
b0 I
b0 H
0G
0F
0E
0D
0C
b0 B
b0 A
b0 @
b0 ?
b0 >
b0 =
1<
0;
b10000010000010011 :
b0 9
b0 8
b0 7
b0 6
b0 5
b0 4
b0 3
b10000010000010011 2
b0 1
b0 0
b0 /
b0 .
1-
b0 ,
b0 +
b0 *
b0 )
b0 (
b0 '
b0 &
b0 %
b0 $
b0 #
0"
1!
$end
#2
b1000100010111 2
b1000100010111 >#
b1000100010111 x#
0-
b0 :
b0 Z"
b0 w#
b0 U"
b0 V"
b0 W"
b11 H"
b10 G"
b10 E"
b101 C"
b1101 F"
b1010 D"
b1101 B"
b11 @"
b1000100010111 A"
b100 L
b100 ?#
b100 `#
b100 i#
b1000100010111 3
b1000100010111 L#
b1000100010111 v#
b100 W
b100 b#
b100 o#
1"
#5
0!
#10
b11 i
b11 9"
b11 ##
1t
1|
1F
b100 C"
b1100 F"
b1100 B"
b10000000100010011 2
b10000000100010011 >#
b10000000100010011 x#
b100010011 A"
b1000000000000 l
b1000000000000 /#
b1000000000000 K#
b111 -"
b111 4"
b1 /
b1 1"
b1 )#
1u
b11 j
b11 /"
b11 6"
b11 D#
1}
1G
b1000 L
b1000 ?#
b1000 `#
b1000 i#
b10000000100010011 3
b10000000100010011 L#
b10000000100010011 v#
b10 G#
b10 J#
b1 F#
b100000000000 H#
b10 *#
b1 *"
b1 2"
b10111 ,"
b1000 W
b1000 b#
b1000 o#
1;
b100 I
b100 -#
b100 B#
b1000100010111 (#
b1000100010111 0
b1000100010111 C#
b1000100010111 E#
b100 X
b100 @#
b100 M#
b100 j#
b100 n#
1!
#15
0!
#20
0p
b1 G"
b1 E"
b11011 C"
b1011 F"
b1001 D"
b1011 B"
b0 i
b0 9"
b0 ##
0t
0V
b100000000000000011101111 2
b100000000000000011101111 >#
b100000000000000011101111 x#
b11101111 A"
bx 9
bx &#
b1100 L
b1100 ?#
b1100 `#
b1100 i#
b100000000000000011101111 3
b100000000000000011101111 L#
b100000000000000011101111 v#
b0 l
b0 /#
b0 K#
bx &
bx t#
b0 -"
b0 4"
b0 /
b0 1"
b0 )#
0u
b0 j
b0 /"
b0 6"
b0 D#
0<
b1000000000000 z
b1000000000000 ("
b1000000000000 ["
b1000000000000 f#
b1100 W
b1100 b#
b1100 o#
b10000 F#
b1000000000000000 H#
b10 }"
b10 +#
b10 p#
b0 *"
b0 2"
b10011 ,"
0{"
b1000000000000 +
b1000000000000 $"
b1000000000000 e#
b1000000000000 S
b1000000000000 `"
b1000000000000 a#
b1000000000000 g#
b1000 X
b1000 @#
b1000 M#
b1000 j#
b1000 n#
b1000 I
b1000 -#
b1000 B#
b100 N
b100 .#
b100 A#
b10000000100010011 (#
b10000000100010011 0
b10000000100010011 C#
b10000000100010011 E#
b100 J
b100 _"
b100 5#
b1 .
b1 :#
b1 ^#
1r
b11 h
b11 2#
b10 (
b10 \"
b10 !#
b10 ;#
1{
1D
b1000000000000 Q
b1000000000000 h#
b1000000000000 m#
b1000000000000 k
b1000000000000 1#
b1000000000000 d#
b1000000000000 l#
b1000100010111 1
b1000100010111 9#
1!
#25
0!
#30
b100 i
b100 9"
b100 ##
1f
b10 @
b10 8"
b10 %#
0|
b0 G"
b0 E"
b1000 D"
b10 o
b10 p"
b10 r"
bx 6
bx '#
b0 9
b0 &#
b1101111 2
b1101111 >#
b1101111 x#
b1101111 A"
0q
0)"
0<
b1000000000000 z
b1000000000000 ("
b1000000000000 ["
b1000000000000 f#
b1000 l
b1000 /#
b1000 K#
bx %
bx s#
b0 &
b0 t#
0}
b100 j
b100 /"
b100 6"
b100 D#
b10 A
b10 0"
b10 7"
1g
b10000 L
b10000 ?#
b10000 `#
b10000 i#
b1101111 3
b1101111 L#
b1101111 v#
b0 &"
b1000000000000 ,
b1000000000000 %"
b1000000000000 _#
b1000000000000 7
b1000000000000 s"
b1000000000000 Z#
b0 +
b0 $"
b0 e#
b100 S
b100 `"
b100 a#
b100 g#
b1000 I#
b1 G#
b100000000000 J#
b100000000000 F#
b100 H#
b1000 ~"
b0 }"
b1 *#
b1000 ,#
b0 +#
b1000 q#
b0 p#
b1101111 ,"
b10000 W
b10000 b#
b10000 o#
b100 K
b100 g"
b100 Q#
1E
1s
b1000000000000 R
b1000000000000 e"
0;
b1000000000000 y
b1000000000000 ?"
b1000000000000 c"
b1000000000000 q"
b1000000000000 v"
b1000000000000 N#
b10 '
b10 j"
b10 k"
b10 S#
b1000 J
b1000 _"
b1000 5#
b0 .
b0 :#
b0 ^#
0r
b0 h
b0 2#
b10 $
b10 n"
b10 <#
b100 O
b100 a"
b100 4#
b100 [#
b100 k#
bx 8
bx u"
bx 7#
b100 Q
b100 h#
b100 m#
b0 k
b0 1#
b0 d#
b0 l#
b10000000100010011 1
b10000000100010011 9#
b1100 I
b1100 -#
b1100 B#
b1000 N
b1000 .#
b1000 A#
b100000000000000011101111 (#
b100000000000000011101111 0
b100000000000000011101111 C#
b100000000000000011101111 E#
b1100 X
b1100 @#
b1100 M#
b1100 j#
b1100 n#
1!
#35
0!
#40
1p
b100 I"
b1110 G"
b1110 E"
b1101 C"
b1101 F"
b1110 D"
b1101 B"
b0 ,
b0 %"
b0 _#
b11000011100110111 2
b11000011100110111 >#
b11000011100110111 x#
b1000011100110111 A"
b0 6
b0 '#
1V
b0 7
b0 s"
b0 Z#
bx #"
xq
x)"
x<
bx z
bx ("
bx ["
bx f#
b10000 L
b10000 ?#
b10000 `#
b10000 i#
b11000011100110111 3
b11000011100110111 L#
b11000011100110111 v#
b0 l
b0 /#
b0 K#
b0 %
b0 s#
b0 o
b0 p"
b0 r"
bx &"
bx +
bx $"
bx e#
b10100 W
b10100 b#
b10100 o#
b0 I#
b0 G#
b0 J#
b0 F#
b0 H#
b0 ~"
b0 *#
b0 ,#
b0 q#
bx *
bx ]"
bx x"
bx c#
b10000 S
b10000 `"
b10000 a#
b10000 g#
b1000000000000 B
b1000000000000 t"
b1000000000000 y"
b1000000000000 u#
b1000000000000 ~#
b10000 X
b10000 @#
b10000 M#
b10000 j#
b10000 n#
b10000 I
b10000 -#
b10000 B#
b1100 N
b1100 .#
b1100 A#
b1101111 (#
b1101111 0
b1101111 C#
b1101111 E#
b1100 J
b1100 _"
b1100 5#
b10 >
b10 ^"
b10 6#
1b
b100 h
b100 2#
b1 (
b1 \"
b1 !#
b1 ;#
0{
b0 $
b0 n"
b0 <#
b1000 #
b1000 m"
b1000 =#
b1000 O
b1000 a"
b1000 4#
b1000 [#
b1000 k#
b0 8
b0 u"
b0 7#
bx 4
bx z"
bx 8#
b10000 Q
b10000 h#
b10000 m#
b1000 k
b1000 1#
b1000 d#
b1000 l#
b100000000000000011101111 1
b100000000000000011101111 9#
b1000 K
b1000 g"
b1000 Q#
b100 P
b100 f"
b100 P#
0s
b100 R
b100 e"
b100 H
b100 W#
b100 {#
1C
b1000000000000 x
b1000000000000 T#
b1000000000000 y#
b10 )
b10 l"
b10 Y#
b10 r#
1!
#45
0!
#50
0p
0f
0F
0V
b0 #"
0q
0)"
1<
b0 z
b0 ("
b0 ["
b0 f#
b0 &"
b0 +
b0 $"
b0 e#
b10100 L
b10100 ?#
b10100 `#
b10100 i#
0g
0G
b0 *
b0 ]"
b0 x"
b0 c#
b0 S
b0 `"
b0 a#
b0 g#
b0 ,"
b1000 H
b1000 W#
b1000 {#
b100 M
b100 V#
b1100 K
b1100 g"
b1100 Q#
b1000 P
b1000 f"
b1000 P#
b10 ?
b10 h"
b10 R#
1U
b10000 R
b10000 e"
x;
bx y
bx ?"
bx c"
bx q"
bx v"
bx N#
bx 5
bx ="
bx i"
b1 '
b1 j"
b1 k"
b1 S#
b0 J
b0 _"
b0 5#
b0 >
b0 ^"
b0 6#
0b
b0 h
b0 2#
b0 (
b0 \"
b0 !#
b0 ;#
b0 #
b0 m"
b0 =#
0D
b0 O
b0 a"
b0 4#
b0 [#
b0 k#
b0 4
b0 z"
b0 8#
b0 Q
b0 h#
b0 m#
b0 k
b0 1#
b0 d#
b0 l#
b0 1
b0 9#
b0 I
b0 -#
b0 B#
b0 N
b0 .#
b0 A#
b0 (#
b0 0
b0 C#
b0 E#
1!
#55
0!
#60
b0 I"
b10 G"
b10 E"
b100 C"
b1100 F"
b1010 D"
b1100 B"
b11 i
b11 9"
b11 ##
b0 @
b0 8"
b0 %#
1|
1F
b11111111000000010000000100010011 2
b11111111000000010000000100010011 >#
b11111111000000010000000100010011 x#
b100010011 A"
bx 9
bx &#
b11000 L
b11000 ?#
b11000 `#
b11000 i#
b11111111000000010000000100010011 3
b11111111000000010000000100010011 L#
b11111111000000010000000100010011 v#
b11000000000000000 l
b11000000000000000 /#
b11000000000000000 K#
bx &
bx t#
b10 /
b10 1"
b10 )#
b11 j
b11 /"
b11 6"
b11 D#
b0 A
b0 0"
b0 7"
1}
1G
b0 o
b0 p"
b0 r"
b0 n
b0 o"
b0 w"
b11000 W
b11000 b#
b11000 o#
b1110 G#
b1110 J#
b11000 F#
b1100000000000000 H#
b11 }"
b1110 *#
b11 +#
b11 p#
b110111 ,"
b1100 B
b1100 t"
b1100 y"
b1100 u#
b1100 ~#
b10100 X
b10100 @#
b10100 M#
b10100 j#
b10100 n#
b10100 I
b10100 -#
b10100 B#
b10000 N
b10000 .#
b10000 A#
b11000011100110111 (#
b11000011100110111 0
b11000011100110111 C#
b11000011100110111 E#
b10 >
b10 ^"
b10 6#
b100 h
b100 2#
b0 K
b0 g"
b0 Q#
b0 P
b0 f"
b0 P#
b0 ?
b0 h"
b0 R#
0U
0E
b0 R
b0 e"
1;
b0 y
b0 ?"
b0 c"
b0 q"
b0 v"
b0 N#
b0 5
b0 ="
b0 i"
b0 '
b0 j"
b0 k"
b0 S#
b1100 H
b1100 W#
b1100 {#
b1000 M
b1000 V#
b10 =
b10 X#
b10 }#
bx x
bx T#
bx y#
b1 )
b1 l"
b1 Y#
b1 r#
1!
#65
0!
